<svg xmlns="http://www.w3.org/2000/svg" width="96" height="96" viewBox="0 0 96 96">
  <g id="Group_1033" data-name="Group 1033" transform="translate(-584 -39)">
    <g id="Group_1030" data-name="Group 1030" transform="translate(584 39)">
      <g id="Group_1027" data-name="Group 1027" transform="translate(34.13 37.869)">
        <path id="Path_2106" data-name="Path 2106" d="M758.713,219.773c.141.056.285.105.426.158l-.075-.03C758.948,219.858,758.828,219.819,758.713,219.773Z" transform="translate(-752.524 -215.925)" fill="#fff"/>
        <path id="Path_2107" data-name="Path 2107" d="M738.05,208.143c-.021-.016-.042-.03-.061-.046C738.01,208.113,738.029,208.129,738.05,208.143Z" transform="translate(-736.583 -206.943)" fill="#fff"/>
        <path id="Path_2108" data-name="Path 2108" d="M744.657,212.659c-.058-.035-.115-.069-.171-.1C744.542,212.59,744.6,212.624,744.657,212.659Z" transform="translate(-741.58 -210.373)" fill="#fff"/>
        <path id="Path_2109" data-name="Path 2109" d="M838.95,212.555c-.058.035-.115.069-.171.1C838.835,212.624,838.893,212.59,838.95,212.555Z" transform="translate(-814.113 -210.373)" fill="#fff"/>
        <path id="Path_2110" data-name="Path 2110" d="M845.808,208.1l-.061.046C845.768,208.134,845.787,208.118,845.808,208.1Z" transform="translate(-819.474 -206.949)" fill="#fff"/>
        <path id="Path_2111" data-name="Path 2111" d="M751.709,216.61c-.111-.053-.221-.1-.331-.158C751.488,216.508,751.6,216.557,751.709,216.61Z" transform="translate(-746.882 -213.37)" fill="#fff"/>
        <path id="Path_2112" data-name="Path 2112" d="M831.511,216.452c-.109.056-.221.105-.331.158C831.291,216.557,831.4,216.508,831.511,216.452Z" transform="translate(-808.268 -213.37)" fill="#fff"/>
        <path id="Path_2113" data-name="Path 2113" d="M800.188,225.764c.051,0,.1-.008.155-.015-.026,0-.053,0-.078,0S800.214,225.762,800.188,225.764Z" transform="translate(-784.428 -220.522)" fill="#fff"/>
        <path id="Path_2114" data-name="Path 2114" d="M815.927,222.572c.123-.034.248-.066.371-.1-.077.022-.157.038-.234.061C816.018,222.544,815.973,222.56,815.927,222.572Z" transform="translate(-796.535 -218)" fill="#fff"/>
        <path id="Path_2115" data-name="Path 2115" d="M823.436,219.931c.142-.053.286-.1.426-.158-.115.046-.235.085-.352.128A.475.475,0,0,1,823.436,219.931Z" transform="translate(-802.311 -215.925)" fill="#fff"/>
        <path id="Path_2116" data-name="Path 2116" d="M808.169,224.538c.094-.018.187-.032.282-.051-.051.01-.1.015-.154.024S808.212,224.53,808.169,224.538Z" transform="translate(-790.567 -219.551)" fill="#fff"/>
        <path id="Path_2117" data-name="Path 2117" d="M783.139,225.749l.155.015c-.026,0-.051-.008-.077-.01S783.165,225.752,783.139,225.749Z" transform="translate(-771.313 -220.522)" fill="#fff"/>
        <path id="Path_2118" data-name="Path 2118" d="M766.465,222.47c.123.037.248.069.371.1-.046-.013-.091-.029-.138-.042C766.62,222.508,766.542,222.494,766.465,222.47Z" transform="translate(-758.487 -218)" fill="#fff"/>
        <path id="Path_2119" data-name="Path 2119" d="M774.611,224.487c.093.019.187.034.282.051-.043-.008-.085-.019-.128-.027S774.662,224.5,774.611,224.487Z" transform="translate(-764.753 -219.551)" fill="#fff"/>
        <path id="Path_2120" data-name="Path 2120" d="M803.558,224.863c.357-.046.714-.09,1.064-.154-.275.051-.558.08-.839.12C803.708,224.839,803.635,224.853,803.558,224.863Z" transform="translate(-787.02 -219.722)" fill="#fff"/>
        <path id="Path_2121" data-name="Path 2121" d="M767.477,222.733c.046.013.091.029.138.042.133.037.27.062.4.1C767.839,222.826,767.656,222.784,767.477,222.733Z" transform="translate(-759.266 -218.202)" fill="#fff"/>
        <path id="Path_2122" data-name="Path 2122" d="M804.542,224.738c.28-.04.562-.069.838-.12.043-.008.085-.019.128-.027C805.188,224.65,804.864,224.693,804.542,224.738Z" transform="translate(-787.777 -219.631)" fill="#fff"/>
        <path id="Path_2123" data-name="Path 2123" d="M775.831,224.709c.35.064.707.109,1.064.154-.075-.01-.15-.024-.225-.035C776.389,224.789,776.106,224.759,775.831,224.709Z" transform="translate(-765.692 -219.722)" fill="#fff"/>
        <path id="Path_2124" data-name="Path 2124" d="M814.173,222.872c.134-.034.272-.061.4-.1.046-.013.091-.029.138-.042C814.536,222.784,814.354,222.826,814.173,222.872Z" transform="translate(-795.186 -218.202)" fill="#fff"/>
        <path id="Path_2125" data-name="Path 2125" d="M792,225.869c.638,0,1.267-.034,1.89-.09.026,0,.051-.008.077-.01C793.318,225.831,792.664,225.869,792,225.869Z" transform="translate(-778.13 -220.538)" fill="#fff"/>
        <path id="Path_2126" data-name="Path 2126" d="M812.474,223.112c.267-.062.533-.125.8-.2-.133.037-.27.062-.4.1S812.607,223.082,812.474,223.112Z" transform="translate(-793.879 -218.341)" fill="#fff"/>
        <path id="Path_2127" data-name="Path 2127" d="M768.073,222.914c.262.074.53.136.8.2-.131-.03-.261-.067-.392-.1S768.206,222.951,768.073,222.914Z" transform="translate(-759.724 -218.341)" fill="#fff"/>
        <path id="Path_2128" data-name="Path 2128" d="M822.992,220.393c.034-.013.069-.022.1-.035l.075-.03C823.11,220.351,823.051,220.372,822.992,220.393Z" transform="translate(-801.97 -216.351)" fill="#fff"/>
        <path id="Path_2129" data-name="Path 2129" d="M754.58,217.992c-.094-.042-.184-.091-.277-.133C754.4,217.9,754.485,217.95,754.58,217.992Z" transform="translate(-749.132 -214.453)" fill="#fff"/>
        <path id="Path_2130" data-name="Path 2130" d="M820.725,220.686c.211-.072.419-.149.626-.227-.034.013-.069.022-.1.035C821.074,220.558,820.9,220.627,820.725,220.686Z" transform="translate(-800.226 -216.453)" fill="#fff"/>
        <path id="Path_2131" data-name="Path 2131" d="M783.556,225.78c.622.056,1.251.09,1.89.09-.664,0-1.318-.038-1.966-.1C783.5,225.772,783.53,225.778,783.556,225.78Z" transform="translate(-771.575 -220.538)" fill="#fff"/>
        <path id="Path_2132" data-name="Path 2132" d="M828.781,217.859c-.093.043-.184.091-.277.133C828.6,217.95,828.686,217.9,828.781,217.859Z" transform="translate(-806.21 -214.453)" fill="#fff"/>
        <path id="Path_2133" data-name="Path 2133" d="M775.277,224.591c.043.008.085.019.128.027.275.051.558.08.839.12C775.92,224.693,775.6,224.65,775.277,224.591Z" transform="translate(-765.266 -219.631)" fill="#fff"/>
        <path id="Path_2134" data-name="Path 2134" d="M760.564,220.459c.208.078.416.155.626.227-.176-.059-.349-.128-.523-.192C760.633,220.483,760.6,220.472,760.564,220.459Z" transform="translate(-753.948 -216.453)" fill="#fff"/>
        <path id="Path_2135" data-name="Path 2135" d="M793.89,225.812c-.622.056-1.251.09-1.89.09C792.638,225.9,793.267,225.868,793.89,225.812Z" transform="translate(-778.13 -220.57)" fill="#fff"/>
        <path id="Path_2136" data-name="Path 2136" d="M760.238,220.334l.075.03c.034.013.069.022.1.035Z" transform="translate(-753.697 -216.356)" fill="#fff"/>
        <path id="Path_2137" data-name="Path 2137" d="M785.7,225.9c-.638,0-1.267-.034-1.89-.09C784.434,225.868,785.063,225.9,785.7,225.9Z" transform="translate(-771.831 -220.57)" fill="#fff"/>
        <path id="Path_2138" data-name="Path 2138" d="M757.562,219.26c.09.037.174.081.266.118.115.046.235.085.352.128C757.972,219.428,757.767,219.345,757.562,219.26Z" transform="translate(-751.639 -215.53)" fill="#fff"/>
        <path id="Path_2139" data-name="Path 2139" d="M823.762,219.513c.117-.043.235-.083.352-.128.09-.037.176-.082.266-.118C824.175,219.35,823.97,219.433,823.762,219.513Z" transform="translate(-802.562 -215.536)" fill="#fff"/>
        <path id="Path_2140" data-name="Path 2140" d="M825.287,218.744c.25-.1.5-.2.741-.309-.155.069-.318.125-.477.19C825.463,218.664,825.376,218.708,825.287,218.744Z" transform="translate(-803.735 -214.896)" fill="#fff"/>
        <path id="Path_2141" data-name="Path 2141" d="M781.149,225.465c.154.019.3.05.459.066.026,0,.053,0,.078,0C781.506,225.518,781.328,225.487,781.149,225.465Z" transform="translate(-769.783 -220.303)" fill="#fff"/>
        <path id="Path_2142" data-name="Path 2142" d="M755.5,218.435c.245.109.493.21.741.309-.09-.037-.176-.082-.266-.118C755.821,218.56,755.658,218.505,755.5,218.435Z" transform="translate(-750.055 -214.896)" fill="#fff"/>
        <path id="Path_2143" data-name="Path 2143" d="M732.965,204.007v-.024c-.363-.285-.726-.57-1.07-.878h0q.677.607,1.4,1.154c-.032-.024-.059-.051-.091-.075C733.13,204.123,733.044,204.068,732.965,204.007Z" transform="translate(-731.895 -203.103)" fill="#fff"/>
        <path id="Path_2144" data-name="Path 2144" d="M817.535,221.681c.248-.074.491-.155.736-.237-.128.043-.261.078-.39.12S817.652,221.647,817.535,221.681Z" transform="translate(-797.772 -217.21)" fill="#fff"/>
        <path id="Path_2145" data-name="Path 2145" d="M763.275,221.444c.245.081.488.165.736.237-.117-.035-.229-.08-.344-.117C763.536,221.522,763.4,221.487,763.275,221.444Z" transform="translate(-756.034 -217.21)" fill="#fff"/>
        <path id="Path_2146" data-name="Path 2146" d="M846.347,203.977V204c-.078.062-.165.115-.245.176-.032.024-.059.051-.091.075q.729-.547,1.4-1.154h0C847.073,203.407,846.71,203.692,846.347,203.977Z" transform="translate(-819.677 -203.098)" fill="#fff"/>
        <path id="Path_2147" data-name="Path 2147" d="M844.5,208.089c.094-.067.2-.126.288-.2.021-.016.042-.03.061-.046s.059-.051.091-.075C844.8,207.882,844.646,207.984,844.5,208.089Z" transform="translate(-818.513 -206.693)" fill="#fff"/>
        <path id="Path_2148" data-name="Path 2148" d="M839.66,209.19c-.048.03-.091.066-.139.1.494-.307.971-.635,1.437-.981-.093.069-.194.128-.288.2C840.339,208.739,840.006,208.971,839.66,209.19Z" transform="translate(-814.684 -207.103)" fill="#fff"/>
        <path id="Path_2149" data-name="Path 2149" d="M816.523,222.141c.077-.022.157-.037.234-.061.117-.035.229-.08.344-.117C816.91,222.025,816.718,222.086,816.523,222.141Z" transform="translate(-796.993 -217.61)" fill="#fff"/>
        <path id="Path_2150" data-name="Path 2150" d="M829.7,217.31c.115-.053.229-.11.342-.165l-.114.051C829.853,217.231,829.78,217.273,829.7,217.31Z" transform="translate(-807.132 -213.903)" fill="#fff"/>
        <path id="Path_2151" data-name="Path 2151" d="M830.688,216.293c.037-.018.077-.032.114-.051.111-.053.221-.1.331-.158.067-.034.13-.075.2-.111Q831.013,216.139,830.688,216.293Z" transform="translate(-807.89 -213.002)" fill="#fff"/>
        <path id="Path_2152" data-name="Path 2152" d="M837.7,212.478c.081-.048.168-.09.248-.139.058-.035.115-.069.171-.1s.093-.066.139-.1C838.074,212.256,837.887,212.366,837.7,212.478Z" transform="translate(-813.282 -210.053)" fill="#fff"/>
        <path id="Path_2153" data-name="Path 2153" d="M832.812,213.691c-.067.035-.13.075-.2.111.486-.246.959-.514,1.421-.8-.08.05-.166.091-.248.139C833.468,213.334,833.143,213.518,832.812,213.691Z" transform="translate(-809.372 -210.72)" fill="#fff"/>
        <path id="Path_2154" data-name="Path 2154" d="M809.389,223.938c.24-.046.475-.109.712-.165-.094.022-.19.042-.285.063C809.672,223.866,809.533,223.909,809.389,223.938Z" transform="translate(-791.506 -219.002)" fill="#fff"/>
        <path id="Path_2155" data-name="Path 2155" d="M800.861,225.461c.21-.021.414-.059.622-.086l-.163.021C801.167,225.415,801.016,225.447,800.861,225.461Z" transform="translate(-784.946 -220.234)" fill="#fff"/>
        <path id="Path_2156" data-name="Path 2156" d="M764.967,221.964c.117.037.227.083.344.117.077.022.157.038.234.061C765.351,222.086,765.159,222.025,764.967,221.964Z" transform="translate(-757.335 -217.61)" fill="#fff"/>
        <path id="Path_2157" data-name="Path 2157" d="M800.521,225.535c.026,0,.053,0,.078,0,.155-.016.3-.046.459-.066C800.879,225.487,800.7,225.518,800.521,225.535Z" transform="translate(-784.684 -220.303)" fill="#fff"/>
        <path id="Path_2158" data-name="Path 2158" d="M752.813,217.138c.114.054.227.112.342.165-.077-.035-.152-.077-.229-.114C752.89,217.172,752.851,217.157,752.813,217.138Z" transform="translate(-747.986 -213.898)" fill="#fff"/>
        <path id="Path_2159" data-name="Path 2159" d="M771.526,223.773c.237.056.472.117.712.165-.144-.029-.283-.07-.427-.1C771.716,223.815,771.62,223.8,771.526,223.773Z" transform="translate(-762.38 -219.002)" fill="#fff"/>
        <path id="Path_2160" data-name="Path 2160" d="M750.532,215.973c.067.035.129.075.2.111.109.056.221.105.331.158l.114.051Q750.85,216.139,750.532,215.973Z" transform="translate(-746.231 -213.002)" fill="#fff"/>
        <path id="Path_2161" data-name="Path 2161" d="M745.476,213.145c-.081-.048-.168-.09-.248-.139.462.282.934.549,1.421.8-.067-.034-.13-.075-.2-.111C746.121,213.518,745.8,213.334,745.476,213.145Z" transform="translate(-742.151 -210.72)" fill="#fff"/>
        <path id="Path_2162" data-name="Path 2162" d="M780.442,225.375c.208.027.413.066.622.086-.155-.016-.3-.046-.459-.066C780.551,225.389,780.5,225.383,780.442,225.375Z" transform="translate(-769.239 -220.234)" fill="#fff"/>
        <path id="Path_2163" data-name="Path 2163" d="M772.76,224.044c.144.032.283.074.427.1.051.01.1.015.154.024C773.146,224.134,772.954,224.086,772.76,224.044Z" transform="translate(-763.33 -219.21)" fill="#fff"/>
        <path id="Path_2164" data-name="Path 2164" d="M738.541,208.495c-.094-.067-.2-.126-.288-.2.465.347.942.674,1.437.981-.048-.03-.093-.066-.139-.1C739.2,208.965,738.872,208.733,738.541,208.495Z" transform="translate(-736.786 -207.098)" fill="#fff"/>
        <path id="Path_2165" data-name="Path 2165" d="M737.594,207.778c.032.024.059.051.091.075l.061.046c.093.069.194.128.288.2C737.887,207.989,737.738,207.887,737.594,207.778Z" transform="translate(-736.279 -206.698)" fill="#fff"/>
        <path id="Path_2166" data-name="Path 2166" d="M808.723,224.17c.051-.009.1-.013.154-.024.144-.029.283-.07.427-.1C809.11,224.086,808.918,224.134,808.723,224.17Z" transform="translate(-790.993 -219.21)" fill="#fff"/>
        <path id="Path_2167" data-name="Path 2167" d="M743.876,212.139c.048.03.091.066.139.1s.115.069.171.1c.08.05.166.091.248.139C744.247,212.366,744.06,212.256,743.876,212.139Z" transform="translate(-741.111 -210.053)" fill="#fff"/>
        <path id="Path_2168" data-name="Path 2168" d="M846.651,206.935v-.024c-.083.066-.16.138-.245.2C846.486,207.05,846.572,207,846.651,206.935Z" transform="translate(-819.98 -206.031)" fill="#fff"/>
        <path id="Path_2169" data-name="Path 2169" d="M779.458,225.229l.225.035.163.021C779.717,225.269,779.589,225.247,779.458,225.229Z" transform="translate(-768.482 -220.122)" fill="#fff"/>
        <path id="Path_2170" data-name="Path 2170" d="M769.827,223.337c.131.033.259.07.392.1.094.022.19.042.285.063C770.277,223.451,770.051,223.394,769.827,223.337Z" transform="translate(-761.073 -218.666)" fill="#fff"/>
        <path id="Path_2171" data-name="Path 2171" d="M841.134,209.151c-.33.238-.666.47-1.01.69C840.47,209.621,840.8,209.389,841.134,209.151Z" transform="translate(-815.148 -207.754)" fill="#fff"/>
        <path id="Path_2172" data-name="Path 2172" d="M761.008,220.612c.174.064.347.133.523.192.128.043.261.078.391.12C761.614,220.826,761.309,220.724,761.008,220.612Z" transform="translate(-754.29 -216.57)" fill="#fff"/>
        <path id="Path_2173" data-name="Path 2173" d="M802.851,225.278l.163-.021c.075-.01.15-.024.225-.035C803.11,225.241,802.982,225.264,802.851,225.278Z" transform="translate(-786.477 -220.116)" fill="#fff"/>
        <path id="Path_2174" data-name="Path 2174" d="M746.3,213.609q.48.286.976.546Q746.781,213.9,746.3,213.609Z" transform="translate(-742.977 -211.183)" fill="#fff"/>
        <path id="Path_2175" data-name="Path 2175" d="M811.24,223.5c.094-.021.19-.04.285-.063.131-.03.261-.067.392-.1C811.693,223.394,811.467,223.451,811.24,223.5Z" transform="translate(-792.93 -218.666)" fill="#fff"/>
        <path id="Path_2176" data-name="Path 2176" d="M834.444,213.609q-.48.286-.976.546C833.8,213.982,834.124,213.8,834.444,213.609Z" transform="translate(-810.028 -211.183)" fill="#fff"/>
      </g>
      <g id="Group_1028" data-name="Group 1028" transform="translate(35.2 38.747)">
        <path id="Path_2177" data-name="Path 2177" d="M753.312,217.36c.077.037.15.078.229.114s.184.091.277.133c.155.069.318.125.477.19Q753.8,217.593,753.312,217.36Z" transform="translate(-749.44 -214.947)" fill="#fff"/>
        <path id="Path_2178" data-name="Path 2178" d="M739.5,209.151c.331.238.664.47,1.01.69C740.167,209.621,739.831,209.389,739.5,209.151Z" transform="translate(-738.816 -208.633)" fill="#fff"/>
        <path id="Path_2179" data-name="Path 2179" d="M826.438,217.8c.158-.066.32-.122.477-.19.094-.042.184-.091.277-.133.077-.035.152-.077.229-.114Q826.935,217.6,826.438,217.8Z" transform="translate(-805.691 -214.953)" fill="#fff"/>
        <path id="Path_2180" data-name="Path 2180" d="M819.033,220.924c.13-.042.262-.077.39-.12.176-.059.349-.128.523-.192C819.646,220.724,819.34,220.826,819.033,220.924Z" transform="translate(-799.995 -217.449)" fill="#fff"/>
        <path id="Path_2181" data-name="Path 2181" d="M736.778,207.106c-.085-.064-.161-.136-.245-.2v.024C736.611,206.991,736.7,207.046,736.778,207.106Z" transform="translate(-736.533 -206.905)" fill="#fff"/>
      </g>
      <g id="Group_1029" data-name="Group 1029" transform="translate(9.614 80.093)">
        <path id="Path_2183" data-name="Path 2183" d="M671.742,389.827l-.008,0Z" transform="translate(-661.102 -388.96)" fill="#fff"/>
        <path id="Path_2184" data-name="Path 2184" d="M662.231,391.657c-.155.026-.31.05-.467.072C661.921,391.707,662.076,391.683,662.231,391.657Z" transform="translate(-653.433 -390.367)" fill="#fff"/>
        <path id="Path_2185" data-name="Path 2185" d="M679.788,386.069c-.122.061-.242.118-.365.176C679.546,386.187,679.666,386.128,679.788,386.069Z" transform="translate(-667.017 -386.069)" fill="#fff"/>
        <path id="Path_2186" data-name="Path 2186" d="M643.345,391.722c-.157-.021-.312-.045-.467-.072C643.033,391.677,643.188,391.7,643.345,391.722Z" transform="translate(-638.905 -390.362)" fill="#fff"/>
        <path id="Path_2187" data-name="Path 2187" d="M626.027,386.245c-.123-.056-.245-.115-.365-.176C625.784,386.128,625.9,386.187,626.027,386.245Z" transform="translate(-625.662 -386.069)" fill="#fff"/>
        <path id="Path_2188" data-name="Path 2188" d="M634.913,389.829l-.008,0S634.91,389.829,634.913,389.829Z" transform="translate(-632.772 -388.96)" fill="#fff"/>
      </g>
      <path id="Path_2189" data-name="Path 2189" d="M664,72.6c0,6.018,6.675,10.5,13.005,6.443a4.76,4.76,0,0,0,1.429-1.43c3.7-5.751.33-11.8-4.834-12.85V59.8H654.318a22.22,22.22,0,0,0-4.687-12.166l2.232-2.234H670.7c1,2.792,4.467,4.421,7.8,2.076a1.517,1.517,0,0,0,.356-.352c2.8-3.892.063-8.124-3.648-8.124a4.792,4.792,0,0,0-4.5,3.2H651.2a1.584,1.584,0,0,0-1.131.468l-2.585,2.585a22.35,22.35,0,0,0-37.8,14.545H596.238l-5.227-11.765c2.406-1.261,3.64-4.456,1.451-7.54a1.515,1.515,0,0,0-.35-.352C588.224,37.354,584,40.093,584,43.8a4.8,4.8,0,0,0,3.7,4.659l6.042,13.59A1.6,1.6,0,0,0,595.2,63h14.483a22.3,22.3,0,0,0,6.171,13.885L602.346,90.392a15.984,15.984,0,0,0-11.268,29.082.328.328,0,0,1,.03.028c.065.042.136.072.2.115a16.1,16.1,0,0,0,1.581.9c.171.085.341.168.515.247a15.433,15.433,0,0,0,1.9.734c.078.023.159.039.24.062a15.727,15.727,0,0,0,1.812.406c.182.03.36.06.542.083.166.023.332.055.5.074V130.2a1.6,1.6,0,0,0,1.6,1.6h14.693a4.8,4.8,0,1,0,0-3.2H601.6v-6.482c.168-.018.335-.051.5-.074.182-.023.362-.053.542-.083a16.224,16.224,0,0,0,1.812-.406c.081-.023.162-.037.24-.062a15.6,15.6,0,0,0,1.9-.734c.171-.078.344-.162.515-.247a16.129,16.129,0,0,0,1.581-.9c.065-.042.136-.072.2-.115a.352.352,0,0,0,.032-.028,15.98,15.98,0,0,0-3.007-28.124l12.307-12.307c.157.122.323.231.485.348.323.238.642.482.976.7s.672.413,1.011.614c.312.182.623.367.946.535.5.263,1.008.515,1.528.738.173.074.351.136.526.205.469.189.942.367,1.424.522.2.065.4.12.6.18.471.136.946.261,1.428.367.212.048.425.092.639.134.494.095.995.168,1.5.231.2.023.4.055.6.074.7.067,1.4.108,2.116.108s1.417-.042,2.118-.106l.172-.019c.562-.069,1.479-.2,2.034-.307q.268-.053.531-.113.723-.163,1.428-.369c.2-.058.4-.113.6-.178.482-.157.955-.332,1.424-.522.175-.072.353-.134.526-.208.521-.224,1.029-.473,1.532-.738.318-.168.628-.348.935-.531.341-.2.683-.4,1.015-.616s.653-.464.978-.7c.159-.12.328-.226.485-.351l11.19,11.195A22.358,22.358,0,0,0,643.785,130.2c.014.009.016.025.03.035.162.127.33.233.494.355.323.238.642.48.976.7s.672.413,1.011.614c.312.182.623.367.946.535.5.263,1.008.515,1.528.738.173.074.351.136.526.205.468.189.942.367,1.424.522.2.065.4.12.6.18.471.136.946.261,1.428.367.212.048.425.092.639.134.494.095.995.168,1.5.231.2.023.4.055.6.074.7.069,1.4.111,2.114.111s1.419-.042,2.118-.106c.2-.021.4-.051.6-.076.5-.06,1-.134,1.5-.228.215-.042.427-.088.639-.134q.72-.163,1.428-.369c.2-.06.4-.115.6-.18.482-.155.955-.332,1.424-.522.175-.069.355-.132.529-.205.519-.224,1.027-.473,1.53-.738.318-.168.628-.348.937-.533.339-.2.683-.395,1.013-.614s.655-.466.978-.7c.164-.122.332-.228.494-.355.014-.009.018-.025.03-.035a22.37,22.37,0,0,0-9.533-39.579L648.147,76.883A22.3,22.3,0,0,0,654.318,63H670.4v1.763A8.012,8.012,0,0,0,664,72.6Zm12.8-28.8a1.6,1.6,0,0,1-1.6,1.6,1.623,1.623,0,1,1,1.6-1.6Zm-89.6,0a1.623,1.623,0,1,1,1.6,1.6A1.6,1.6,0,0,1,587.2,43.8Zm30.836,87.577a1.655,1.655,0,0,1,2.337-2.341A1.655,1.655,0,0,1,618.037,131.377ZM606.4,117.268c-.051.03-.1.062-.145.09M590.4,114.639a13.018,13.018,0,0,1-2.86-5.518,15.072,15.072,0,0,1-.339-2.921,12.8,12.8,0,1,1,25.6,0,15.059,15.059,0,0,1-.349,2.964,13,13,0,0,1-2.852,5.475,13.049,13.049,0,0,1-19.2,0Zm52.8,10.618a19.5,19.5,0,0,1-4.28-8.228,22.586,22.586,0,0,1-.52-4.43,19.2,19.2,0,0,1,38.4,0,22.56,22.56,0,0,1-.557,4.586A19.461,19.461,0,0,1,672,125.257a19.935,19.935,0,0,1-15.076,6.512A19.732,19.732,0,0,1,643.2,125.257Zm-.577-59.232a8.471,8.471,0,0,0-3.642-1.348c2.375-2.056,4.219-4.936,4.219-8.077,0-10.581-6.09-12.8-11.2-12.8s-11.2,2.22-11.2,12.8c0,3.141,1.844,6.021,4.218,8.077a8.454,8.454,0,0,0-7.419,8.407v.974a19.2,19.2,0,1,1,28.8,0v-.974A8.466,8.466,0,0,0,642.622,66.025Zm-8.585,14.458-.252.03c-.589.051-1.184.088-1.786.088s-1.2-.037-1.786-.092c-.083-.007-.166-.021-.249-.028-.217-.025-.429-.06-.644-.09-.3-.044-.607-.083-.9-.138l-.108-.021c-.328-.065-.655-.148-.981-.231-.228-.058-.457-.108-.681-.175-.383-.111-.759-.242-1.131-.378-.178-.062-.355-.125-.531-.192-.395-.157-.782-.33-1.168-.512-.141-.067-.286-.136-.427-.208q-.6-.3-1.175-.648c-.115-.067-.231-.138-.344-.21-.367-.228-.72-.471-1.071-.722V73.082a5.277,5.277,0,0,1,5.285-5.282h3.552l-2.322,5.8a1.6,1.6,0,0,0,.355,1.728l3.2,3.2a1.6,1.6,0,0,0,2.259,0l3.2-3.2a1.61,1.61,0,0,0,.355-1.728l-2.324-5.8h3.552a5.287,5.287,0,0,1,5.285,5.285v3.872c-.351.252-.7.5-1.068.722-.115.074-.231.141-.346.212q-.578.343-1.172.648c-.141.069-.286.136-.429.205-.383.182-.771.355-1.168.512-.173.069-.351.129-.529.194-.374.136-.75.265-1.131.376-.224.067-.455.12-.683.178-.325.081-.651.164-.981.231-.035,0-.072.014-.106.021-.3.055-.6.095-.9.136C634.467,80.423,634.252,80.46,634.038,80.483ZM632,70.507l1.322,3.307L632,75.138l-1.322-1.325Zm2.423-20.079a1.6,1.6,0,0,0-2.34.868c-.81,2.428-5.181,3.344-8,3.612C624.516,49.546,627.045,47,632,47c4.542,0,7.036,2.146,7.756,6.625Zm-.217,3.6,5.718,3.432C639.283,61.38,634.455,64.6,632,64.6c-2.319,0-6.745-2.866-7.777-6.482C626.962,57.891,631.908,57.06,634.206,54.03ZM675.32,76.247c-3.882,2.805-8.12.065-8.12-3.647a4.807,4.807,0,0,1,4.8-4.8c3.7,0,6.44,4.215,3.666,8.1A1.519,1.519,0,0,1,675.32,76.247Z" transform="translate(-584 -39)" fill="#fff"/>
    </g>
    <g id="Group_1031" data-name="Group 1031" transform="translate(591.794 96.231)">
      <path id="Path_2190" data-name="Path 2190" d="M659.98,305.08a2.545,2.545,0,0,0-1.39-2.274,2.251,2.251,0,0,0,.553-1.5,2.468,2.468,0,0,0-2.465-2.465,2.373,2.373,0,0,0-.733.115,2.215,2.215,0,0,0-4.263-.548,2.19,2.19,0,0,0-.152.8v11.729a2.215,2.215,0,0,0,4.415.255,2.408,2.408,0,0,0,.733.115,2.468,2.468,0,0,0,2.465-2.466,2.427,2.427,0,0,0-.558-1.551A2.482,2.482,0,0,0,659.98,305.08Zm-2.077,1.761a.33.33,0,0,0-.131.583,1.8,1.8,0,0,1-1.094,3.231,1.768,1.768,0,0,1-.906-.254.33.33,0,0,0-.493.33l0,.039a1.249,1.249,0,0,1,.018.174,1.555,1.555,0,0,1-3.11,0V299.216a1.555,1.555,0,1,1,3.11,0,1.246,1.246,0,0,1-.018.174l0,.04a.329.329,0,0,0,.493.329,1.778,1.778,0,0,1,.906-.253,1.808,1.808,0,0,1,1.806,1.8,1.642,1.642,0,0,1-.626,1.3c-.027.023-.056.047-.085.069a.33.33,0,0,0,.131.583l.033.008a1.878,1.878,0,0,1,1.385,1.813A1.813,1.813,0,0,1,657.9,306.841Z" transform="translate(-643.74 -294.693)" fill="#fff" stroke="#fff" stroke-width="0.5"/>
      <path id="Path_2191" data-name="Path 2191" d="M626.074,298.414A2.222,2.222,0,0,0,624.01,297a2.218,2.218,0,0,0-2.2,1.96,2.363,2.363,0,0,0-.733-.115,2.468,2.468,0,0,0-2.465,2.465,2.252,2.252,0,0,0,.554,1.5,2.544,2.544,0,0,0-1.392,2.274,2.481,2.481,0,0,0,1.4,2.219,2.428,2.428,0,0,0-.559,1.551,2.468,2.468,0,0,0,2.465,2.466,2.4,2.4,0,0,0,.733-.115,2.214,2.214,0,0,0,4.085.906,2.117,2.117,0,0,0,.18-.36,2.2,2.2,0,0,0,.15-.8V299.216A2.207,2.207,0,0,0,626.074,298.414Zm-.51,12.531a1.555,1.555,0,0,1-3.11,0,1.249,1.249,0,0,1,.018-.174l.006-.039a.332.332,0,0,0-.143-.32.334.334,0,0,0-.35-.011,1.773,1.773,0,0,1-.908.254,1.8,1.8,0,0,1-1.094-3.231.329.329,0,0,0-.131-.583,1.814,1.814,0,0,1-1.418-1.761,1.878,1.878,0,0,1,1.386-1.813l.033-.008a.329.329,0,0,0,.131-.583c-.029-.022-.058-.045-.085-.069a1.645,1.645,0,0,1-.625-1.3,1.807,1.807,0,0,1,1.8-1.8,1.783,1.783,0,0,1,.908.253.33.33,0,0,0,.493-.329l-.006-.04a1.264,1.264,0,0,1-.018-.174,1.555,1.555,0,1,1,3.11,0Z" transform="translate(-617.775 -294.693)" fill="#fff" stroke="#fff" stroke-width="0.5"/>
      <path id="Path_2192" data-name="Path 2192" d="M657.307,314.7a.33.33,0,0,1-.33-.33,1.588,1.588,0,0,1,1.587-1.587h.419a.928.928,0,0,0,.927-.927.33.33,0,1,1,.66,0,1.588,1.588,0,0,1-1.586,1.586h-.419a.928.928,0,0,0-.927.927A.33.33,0,0,1,657.307,314.7Z" transform="translate(-647.93 -305.865)" fill="#fff" stroke="#fff" stroke-width="0.5"/>
      <path id="Path_2193" data-name="Path 2193" d="M671.269,324.307h-.209a1.512,1.512,0,0,1,0-3.012h1.047a.33.33,0,0,1,0,.66H671.06a.858.858,0,0,0,0,1.693h.209a.33.33,0,1,1,0,.659Z" transform="translate(-657.704 -313.381)" fill="#fff" stroke="#fff" stroke-width="0.5"/>
      <path id="Path_2194" data-name="Path 2194" d="M662.752,337.734a.33.33,0,0,1-.233-.563l.744-.743a1.424,1.424,0,0,0,.178-1.8l-.543-.815a.33.33,0,0,1,.549-.366l.543.815a2.083,2.083,0,0,1-.26,2.628l-.743.743a.329.329,0,0,1-.233.1Z" transform="translate(-652.119 -322.619)" fill="#fff" stroke="#fff" stroke-width="0.5"/>
      <path id="Path_2195" data-name="Path 2195" d="M654.757,338.992a.33.33,0,0,1-.33-.33.99.99,0,0,0-.989-.989h-.4a.33.33,0,0,1,0-.66h.4a1.651,1.651,0,0,1,1.649,1.649A.33.33,0,0,1,654.757,338.992Z" transform="translate(-644.65 -325.472)" fill="#fff" stroke="#fff" stroke-width="0.5"/>
      <path id="Path_2196" data-name="Path 2196" d="M636.718,314.7a.33.33,0,0,1-.33-.33.928.928,0,0,0-.927-.927h-.419a1.588,1.588,0,0,1-1.586-1.586.33.33,0,1,1,.66,0,.928.928,0,0,0,.927.927h.419a1.588,1.588,0,0,1,1.586,1.587A.33.33,0,0,1,636.718,314.7Z" transform="translate(-629.837 -305.865)" fill="#fff" stroke="#fff" stroke-width="0.5"/>
      <path id="Path_2197" data-name="Path 2197" d="M625.757,324.307h-.21a.33.33,0,1,1,0-.66h.21a.858.858,0,0,0,0-1.693H624.71a.33.33,0,0,1,0-.66h1.047a1.512,1.512,0,0,1,0,3.012Z" transform="translate(-622.856 -313.381)" fill="#fff" stroke="#fff" stroke-width="0.5"/>
      <path id="Path_2198" data-name="Path 2198" d="M635.62,341.547a2.083,2.083,0,0,1-1.943-1.347l-.346-.916a.33.33,0,1,1,.617-.233l.346.916a1.423,1.423,0,0,0,1.563.9l1.037-.172a.33.33,0,0,1,.108.651l-1.037.171a2.122,2.122,0,0,1-.345.028Z" transform="translate(-629.725 -326.875)" fill="#fff" stroke="#fff" stroke-width="0.5"/>
      <path id="Path_2199" data-name="Path 2199" d="M644.469,330.418a.33.33,0,0,1-.33-.33,1.651,1.651,0,0,1,1.649-1.649h.4a.33.33,0,1,1,0,.659h-.4a.99.99,0,0,0-.989.989A.33.33,0,0,1,644.469,330.418Z" transform="translate(-638.055 -318.877)" fill="#fff" stroke="#fff" stroke-width="0.5"/>
      <path id="Path_2200" data-name="Path 2200" d="M676.191,292.936a.33.33,0,0,1-.233-.563l.989-.989a.33.33,0,1,1,.466.466l-.989.989A.329.329,0,0,1,676.191,292.936Z" transform="translate(-662.457 -290.298)" fill="#fff" stroke="#fff" stroke-width="0.5"/>
      <path id="Path_2201" data-name="Path 2201" d="M680.368,300.52h-1.319a.33.33,0,1,1,0-.659h1.319a.33.33,0,1,1,0,.659Z" transform="translate(-664.655 -296.893)" fill="#fff" stroke="#fff" stroke-width="0.5"/>
      <path id="Path_2202" data-name="Path 2202" d="M671.9,288.979a.33.33,0,0,1-.33-.33V287.33a.33.33,0,1,1,.659,0v1.319A.33.33,0,0,1,671.9,288.979Z" transform="translate(-659.16 -287)" fill="#fff" stroke="#fff" stroke-width="0.5"/>
    </g>
    <g id="Group_1032" data-name="Group 1032" transform="translate(644.231 97.846)">
      <path id="Path_2203" data-name="Path 2203" d="M902.331,323.467c-.01.16-.008-.136-.111,2.061a.389.389,0,0,1,0,.04c-.04.858-.095,2.088-.172,3.859a.428.428,0,0,1-.05.188h0a.442.442,0,0,1-.079.105l-7.451,7.451a2.677,2.677,0,0,1-3.783,0l-.367-.367-.227-.226c-.974-.97-1.522-1.507-1.852-1.852-.139-.146-.239-.257-.315-.353-.014-.016-.027-.033-.038-.048l0,0a1.712,1.712,0,0,1-.158-.245l-.012-.022c-.027-.052-.052-.106-.08-.168,1.13,1.13.646.642,2.159,2.155a2.667,2.667,0,0,0,1.04.646l.167.167a2.231,2.231,0,0,0,3.154,0l7.451-7.452.244-5.106a5.957,5.957,0,0,1-.529.565c.024-.531.052-1.141.086-1.841v0c.2-.011.212-.01.289-.013l.037,0,.134-.007a.465.465,0,0,1,.153.018.437.437,0,0,1,.08.033.459.459,0,0,1,.074.048l.032.03.008.009a.441.441,0,0,1,.122.272A.447.447,0,0,1,902.331,323.467Z" transform="translate(-877.793 -316.306)" fill="#fff" stroke="#fff" stroke-width="0.5"/>
      <path id="Path_2204" data-name="Path 2204" d="M869.882,298.5a3.083,3.083,0,0,0-3.167-1.981,4.011,4.011,0,0,0-2.531,1.6v-1.884a2.233,2.233,0,0,0-2.23-2.231h-7.139a2.233,2.233,0,0,0-2.23,2.231v2.23h-5.354A2.234,2.234,0,0,0,845,300.692v16.062a2.234,2.234,0,0,0,2.231,2.231v.446a1.338,1.338,0,0,0,1.338,1.338h2.677a1.339,1.339,0,0,0,1.338-1.338v-.446h11.6v.446a1.339,1.339,0,0,0,1.338,1.338H868.2a1.338,1.338,0,0,0,1.338-1.338v-.446a2.234,2.234,0,0,0,2.231-2.231V300.692A2.228,2.228,0,0,0,869.882,298.5Zm.994,18.257a1.338,1.338,0,0,1-1.338,1.338h-2.23v-8.229l2.13-2.131a.885.885,0,0,0,.261-.59l.285-5.96v-.057a.9.9,0,0,0-.144-.473,2.92,2.92,0,0,0,.107-.321h0a3.126,3.126,0,0,0,.116-.87,1.337,1.337,0,0,1,.813,1.23Zm-24.984-16.062a1.338,1.338,0,0,1,1.339-1.338h1.784v18.738h-1.784a1.338,1.338,0,0,1-1.339-1.338Zm9.369-2.231v-1.784h6.246v1.784Zm6.1,16.09a2.23,2.23,0,0,1-3.154,0l-.167-.167-2.357-2.357a2.234,2.234,0,0,1,0-3.155l7.45-7.451,5.436-.259a4.787,4.787,0,0,1-.823.9,1.377,1.377,0,0,0-1.651.184,1.339,1.339,0,1,0,2.208.515c.076-.065.151-.132.224-.2a5.957,5.957,0,0,0,.529-.565l-.244,5.106Zm5.057-3.8v7.337h-1.784v-5.552Zm-2.677,2.677v4.66H852.585V299.354h11.154V300.5c-.625.03-.937-.012-1.239.292l-7.451,7.45a3.128,3.128,0,0,0,0,4.417l2.524,2.524a3.123,3.123,0,0,0,4.417,0Zm.893-12.975v-1.1h1.784v1.019Zm2.721,3.051a.458.458,0,0,1-.631,0,.446.446,0,1,1,.631,0Zm1.684-3.262-1.728.084v-.976h1.848A1.883,1.883,0,0,1,869.036,300.246Zm-17.879,4.134a.459.459,0,0,1-.714,0l-.535-.714v-4.313h1.784v4.313Zm.535.723v12.988h-1.784V305.1A1.318,1.318,0,0,0,851.692,305.1Zm17.177-6.643H865.05C866.374,296.959,868.011,297.1,868.869,298.461Zm-15.392-2.23a1.338,1.338,0,0,1,1.338-1.338h7.139a1.338,1.338,0,0,1,1.338,1.338v2.23H862.4v-1.784a.893.893,0,0,0-.893-.893h-6.246a.893.893,0,0,0-.893.893v1.784h-.893Zm-1.784,23.2a.446.446,0,0,1-.446.446H848.57a.446.446,0,0,1-.447-.446v-.446h3.57Zm16.954,0a.446.446,0,0,1-.447.446h-2.677a.446.446,0,0,1-.446-.446v-.446h3.57Z" transform="translate(-845 -294)" fill="#fff" stroke="#fff" stroke-width="0.5"/>
      <path id="Path_2205" data-name="Path 2205" d="M906.057,338.429l.336-.337a.446.446,0,1,0-.631-.631l-.337.337a2.647,2.647,0,1,0-3.743,3.743l-2.52,2.52a1.954,1.954,0,0,1-.025-2.5.446.446,0,1,0-.631-.631,2.839,2.839,0,0,0,.021,3.765l-.336.337a.446.446,0,0,0,.315.761c.222,0,.287-.1.652-.468a3,3,0,0,0,3.245.413,2.339,2.339,0,0,0,.519-.391,2.307,2.307,0,0,0,.388-.515,3,3,0,0,0-.409-3.249l2.52-2.521a1.954,1.954,0,0,1,.025,2.5.447.447,0,0,0,.2.747.451.451,0,0,0,.431-.116,2.333,2.333,0,0,0,.391-.516A2.987,2.987,0,0,0,906.057,338.429Zm-3.764,6.291a1.941,1.941,0,0,1-2.5-.026l2.473-2.472A1.941,1.941,0,0,1,902.293,344.719Zm.025-3.811a1.749,1.749,0,1,1,2.472-2.472Z" transform="translate(-885.619 -327.138)" fill="#fff" stroke="#fff" stroke-width="0.5"/>
    </g>
  </g>
</svg>
