{
	"order" : 1,
	"fieldGroupClassName" : "row",
	"fieldGroup" : [
		{
			"key" : "headlineTitles",
			"className" : "col-6",
			"type" : "input",
			"templateOptions" : {
				"type" : "text",
				"min" : 1,
				"label" : "Headlines/Titles",
				"placeholder" : "Enter the Headlines/Titles",
				"required" : true,
				"appearance" : "outline"
			},
			"validators" : {
				"validation" : [
					
				]
			}
		},
		{
			"key" : "achievementsCategory",
			"className" : "col-6",
			"type" : "select",
			"templateOptions" : {
				"label" : "Achievements Category",
				"required" : true,
				"appearance" : "outline",
				"options" : [ ]
			},
			"validators" : {
				"validation" : [
				]
			}
		},
		{
			"key" : "achievementsSummary",
			"className" : "col-12",
			"type" : "textarea",
			"templateOptions" : {
				"type" : "text",
				"rows" : 2,
				"label" : "Achievements Summary",
				"placeholder" : "Enter the Achievements Summary",
				"required" : false,
				"appearance" : "outline"
			},
			"validators" : {
				"validation" : [
				]
			}
		}
	]
}