<svg xmlns="http://www.w3.org/2000/svg" width="15.28" height="18.708" viewBox="0 0 15.28 18.708">
  <g id="Group_273" data-name="Group 273" transform="translate(-1204 -1637)">
    <path id="Path_1194" data-name="Path 1194" d="M268.816,176.552h.029a.548.548,0,0,0,.547-.52l.515-9.88a.548.548,0,0,0-1.095-.057l-.515,9.88A.548.548,0,0,0,268.816,176.552Zm0,0" transform="translate(945.506 1477.474)" fill="#268aff"/>
    <path id="Path_1195" data-name="Path 1195" d="M106.333,176.037a.548.548,0,0,0,.547.518h.03a.548.548,0,0,0,.517-.577l-.539-9.88a.548.548,0,0,0-1.094.06Zm0,0" transform="translate(1102.072 1477.471)" fill="#268aff"/>
    <path id="Path_1196" data-name="Path 1196" d="M194.8,176.555a.548.548,0,0,0,.548-.548v-9.88a.548.548,0,1,0-1.1,0v9.88A.548.548,0,0,0,194.8,176.555Zm0,0" transform="translate(1016.844 1477.471)" fill="#268aff"/>
    <path id="Path_1197" data-name="Path 1197" d="M15.232,4.181l-.413-1.238a1.152,1.152,0,0,0-1.094-.788H10.253V1.024A1.026,1.026,0,0,0,9.229,0H6.05A1.026,1.026,0,0,0,5.026,1.024v1.13H1.554A1.152,1.152,0,0,0,.46,2.943L.047,4.181A.927.927,0,0,0,.926,5.4h.432l.95,11.751a1.7,1.7,0,0,0,1.685,1.555h7.486a1.7,1.7,0,0,0,1.685-1.555L14.114,5.4h.239a.927.927,0,0,0,.879-1.22ZM6.122,1.1H9.157V2.155H6.122Zm5.949,15.968a.6.6,0,0,1-.592.547H3.993a.6.6,0,0,1-.592-.547L2.458,5.4H13.014ZM1.161,4.305,1.5,3.29a.057.057,0,0,1,.054-.039H13.725a.057.057,0,0,1,.054.039l.339,1.015Zm0,0" transform="translate(1204 1637)" fill="#268aff"/>
  </g>
</svg>
