<svg xmlns="http://www.w3.org/2000/svg" width="79.082" height="64.585" viewBox="0 0 79.082 64.585">
  <g id="Group_1502" data-name="Group 1502" transform="translate(-209 -588)">
    <path id="Path_2786" data-name="Path 2786" d="M2474.545-373.22H2473V-376h1.545Z" transform="translate(-2192.023 988.106)" fill="#fff" opacity="0.6"/>
    <path id="Path_2792" data-name="Path 2792" d="M2431.879-369.993v1.515a2.82,2.82,0,0,1-.474,1.564H2428.8v-2.842h2.132v-.237a.474.474,0,0,1,.474-.474A.474.474,0,0,1,2431.879-369.993Z" transform="translate(-2154.65 983.428)" fill="#fff" opacity="0.4"/>
    <path id="Path_2793" data-name="Path 2793" d="M2430.333-410.333a1.566,1.566,0,0,0,.263.868l.211.316v.237h1.421v-.237l.211-.316a1.564,1.564,0,0,0,.263-.868Z" transform="translate(-2155.946 1017.136)" fill="#fff"/>
    <path id="Path_2794" data-name="Path 2794" d="M2424.225-397.192v.209H2422.8v-.237a.474.474,0,0,0-.473-.474.474.474,0,0,0-.474.474v.237h-3.789v-.418a.429.429,0,0,1,.237-.383.429.429,0,0,0,.237-.383v-2.368a2.132,2.132,0,0,1,2.132-2.132h.947a2.132,2.132,0,0,1,2.132,2.132v2.674A.71.71,0,0,1,2424.225-397.192Z" transform="translate(-2145.574 1010.654)" fill="#fff" opacity="0.25"/>
    <path id="Path_2795" data-name="Path 2795" d="M2402.733-372h.653a2.426,2.426,0,0,1,1.716.711h1.184l.474.474v1.421h-1.421a3.553,3.553,0,0,1-2.132-.71h-.474Z" transform="translate(-2132.609 984.724)" fill="#fff" opacity="0.4"/>
    <path id="Path_2796" data-name="Path 2796" d="M2393.533-376.6h1.421v2.842h-1.421Z" transform="translate(-2124.83 988.614)" fill="#fff" opacity="0.6"/>
    <path id="Path_2797" data-name="Path 2797" d="M2452.523-372h-.416a2.425,2.425,0,0,0-1.715.711h-1.184l-.474.474v1.421h1.421a3.552,3.552,0,0,0,2.131-.71h.237Z" transform="translate(-2171.505 984.724)" fill="#fff" opacity="0.4"/>
    <path id="Path_2798" data-name="Path 2798" d="M2427.267-347.467h3.316v2.132h-3.316Z" transform="translate(-2153.354 963.98)" fill="#fff" opacity="0.6"/>
    <path id="Path_2799" data-name="Path 2799" d="M2432.578-393.105h.474a.237.237,0,0,1,.237.237.237.237,0,0,1-.237.237h-.948v.474h.474v.474h.474v-.474h0a.711.711,0,0,0,.71-.711.71.71,0,0,0-.711-.71h-.474a.237.237,0,0,1-.237-.237.237.237,0,0,1,.237-.237h.947v-.474h-.474V-395h-.474v.474a.71.71,0,0,0-.71.711A.71.71,0,0,0,2432.578-393.105Z" transform="translate(-2157.243 1004.172)" fill="#fff"/>
    <path id="Path_2800" data-name="Path 2800" d="M2392.237-403.341h1.421a.237.237,0,0,0,.237-.237h.159a3.815,3.815,0,0,0,2.209.711h1.184v.711a.237.237,0,0,0-.237.237v2.132a.237.237,0,0,0,.237.237h3.316a.237.237,0,0,0,.237-.237v-2.132a.237.237,0,0,0-.237-.237h-.067a3.031,3.031,0,0,0,.24-.711h1.247a3.815,3.815,0,0,0,2.137-.661.237.237,0,0,0,.231.187h1.421a.237.237,0,0,0,.237-.237v-2.842a.237.237,0,0,0-.237-.237h-1.421a.237.237,0,0,0-.237.237v.474h-.179a2.643,2.643,0,0,0-1.759.664.951.951,0,0,0-.43-.537v-2.5a2.372,2.372,0,0,0-1.745-2.284l.021-.032a1.8,1.8,0,0,0,.3-1,.237.237,0,0,0-.237-.237h-2.368a.237.237,0,0,0-.237.237,1.793,1.793,0,0,0,.3,1l.021.032a2.372,2.372,0,0,0-1.745,2.284v2.341a.19.19,0,0,1-.106.171.662.662,0,0,0-.317.339,2.642,2.642,0,0,0-1.53-.483h-.416v-.474a.237.237,0,0,0-.237-.237h-1.421a.237.237,0,0,0-.237.237v2.842a.237.237,0,0,0,.237.237Zm12.552-2.842h.947v2.368h-.947Zm-4.263,6.158h-2.842v-1.658h2.842Zm-2.605-2.132v-2.132h1.657a1.841,1.841,0,0,0-.473,1.237v.278h.474v-.278a1.372,1.372,0,0,1,.4-.976.236.236,0,0,0,.069-.167v-.8a.237.237,0,0,1,.237-.237.237.237,0,0,1,.237.237v1.514a2.577,2.577,0,0,1-.368,1.328Zm6.215-3.316h.179v1.421h0a.237.237,0,0,0-.142.047,3.336,3.336,0,0,1-1.99.663H2401c0-.048,0-.1,0-.143l1.421-.33v-.474H2401.2a.219.219,0,0,1-.2-.237h0a.258.258,0,0,1,.065-.175.18.18,0,0,1,.131-.062h1.225a.236.236,0,0,0,.167-.069A2.175,2.175,0,0,1,2404.136-405.472Zm-5.756-5.421a1.321,1.321,0,0,1-.2-.5h1.852a1.322,1.322,0,0,1-.2.5l-.142.214-.108,0h-.947l-.108,0Zm-2.012,5.515a.662.662,0,0,0,.368-.595v-2.341a1.9,1.9,0,0,1,1.895-1.895h.947a1.9,1.9,0,0,1,1.895,1.895v2.368H2401v.474h.473a.473.473,0,0,1,.41.237h-.687a.636.636,0,0,0-.224.04.71.71,0,0,0-.879-.486.711.711,0,0,0-.514.683v.237h-1.935a.711.711,0,0,0-.67-.474h-.708A.19.19,0,0,1,2396.369-405.379Zm-2.058-.093a2.176,2.176,0,0,1,1.548.641.236.236,0,0,0,.167.07h.947a.237.237,0,0,1,.237.237.237.237,0,0,1-.237.237h-1.184v.474h1.658v.474h-1.184a3.336,3.336,0,0,1-1.99-.663.236.236,0,0,0-.142-.047h-.237v-1.421Zm-1.837-.71h.947v2.368h-.947Z" transform="translate(-2123.534 1018.433)" fill="#fff"/>
    <path id="Path_2801" data-name="Path 2801" d="M2411.933-399.6h.71v.474h-.71Z" transform="translate(-2140.388 1008.061)" fill="#fff"/>
    <path id="Path_2802" data-name="Path 2802" d="M2459.467-399.6h.71v.474h-.71Z" transform="translate(-2180.58 1008.061)" fill="#fff"/>
    <path id="Path_2806" data-name="Path 2806" d="M2450.088-421.89l.435-.435.29.29-.435.435Z" transform="translate(-2172.649 1027.276)" fill="#fff"/>
    <path id="Path_2807" data-name="Path 2807" d="M2436.568-428h.41v.615h-.41Z" transform="translate(-2161.218 1032.074)" fill="#fff"/>
    <path id="Path_2808" data-name="Path 2808" d="M2421-422.039l.29-.29.435.435-.29.29Z" transform="translate(-2148.054 1027.279)" fill="#fff"/>
    <g id="Group_1164" data-name="Group 1164" transform="translate(252.495 638.055)">
      <rect id="Rectangle_492" data-name="Rectangle 492" width="10.544" height="7.568" transform="translate(0 0)" fill="#fff"/>
    </g>
    <path id="Path_2832" data-name="Path 2832" d="M2258.921-153.964v2.636H2227V-156.6h29.261A2.656,2.656,0,0,1,2258.921-153.964Z" transform="translate(-1984.019 802.594)" fill="#fff" opacity="0.72"/>
    <path id="Path_2833" data-name="Path 2833" d="M2192.994-492.944v36.965c0,.582-.635,1.055-1.415,1.056h-53.188a14.29,14.29,0,0,0,1.823-3.718v-10.52a5.747,5.747,0,0,0-.9-3.3,4.6,4.6,0,0,0-.335-.422,6.545,6.545,0,0,0-3.982-1.82v-18.238c0-.582.635-1.055,1.415-1.056h55.165C2192.36-494,2192.991-493.526,2192.994-492.944Z" transform="translate(-1906.229 1087.88)" fill="#fff" opacity="0.52"/>
    <rect id="Rectangle_493" data-name="Rectangle 493" width="5.53" height="7.908" transform="translate(235.103 619.634)" fill="#fff"/>
    <rect id="Rectangle_494" data-name="Rectangle 494" width="5.622" height="7.908" transform="translate(212.954 619.634)" fill="#fff"/>
    <path id="Path_2834" data-name="Path 2834" d="M2150.876-265.07v.13a25.684,25.684,0,0,1-1.375,3.588,9.288,9.288,0,0,1-1.619,2.3.725.725,0,0,0-.165.449v1.832a7.249,7.249,0,0,0,.032.944,4.056,4.056,0,0,1-.14-1.1v-1.829a2.05,2.05,0,0,1,.415-1.25l.19-.249c.3-.354.578-.723.839-1.1A14.3,14.3,0,0,0,2150.876-265.07Z" transform="translate(-1916.891 894.31)" fill="#fff"/>
    <path id="Path_2835" data-name="Path 2835" d="M2046.5-339.584v2.306H2013.53v-2.464a6.04,6.04,0,0,1,3.552-5.352l7.6-3.7a2.708,2.708,0,0,0,1.619-2.437v-1.753a.716.716,0,0,0-.165-.448c-.164-.2-.463-.528-.839-.976a16.878,16.878,0,0,1-1.843-2.637,9.81,9.81,0,0,1-.93-2.28v-10.65s-.554-5.812,7.493-6.722a13.614,13.614,0,0,1,2.278.442,7.185,7.185,0,0,1,4.317,2.976,4.61,4.61,0,0,0-.335-.422,6.545,6.545,0,0,0-3.982-1.82,13.848,13.848,0,0,0-1.977-.131c-2.743,0-4.748.656-5.959,1.951a5.086,5.086,0,0,0-1.294,3.477v1.145l0,.017v7.908l0,0,0,1.518a10.125,10.125,0,0,0,.989,2.433h5.6a1.319,1.319,0,0,1,1.319,1.319,1.318,1.318,0,0,1-1.319,1.318h-3.817l.137.181a2.05,2.05,0,0,1,.414,1.246v1.753a4.079,4.079,0,0,1-2.108,3.591l-6.674,3.7a4.776,4.776,0,0,0-2.45,4.2v1.146h30.314v-.993a4.743,4.743,0,0,0-.32-1.753,4.767,4.767,0,0,0-2.277-2.533l-6.47-3.653a4.051,4.051,0,0,1-1.457-1.3,1.869,1.869,0,0,0,.474.3l7.3,3.625a6.422,6.422,0,0,1,3.435,3.557A5.49,5.49,0,0,1,2046.5-339.584Z" transform="translate(-1803.521 988.698)" fill="#fff"/>
    <path id="Path_2836" data-name="Path 2836" d="M2273.884-360.021v1.357a1.473,1.473,0,0,1-.952,1.42,1.433,1.433,0,0,1-1.3-.184,1.434,1.434,0,0,1-.605-1.164v-1.427Z" transform="translate(-2021.247 974.595)" fill="#fff" opacity="0.36"/>
    <path id="Path_2837" data-name="Path 2837" d="M2261.072-421.1a4.275,4.275,0,0,1-1.535,4.017,1.444,1.444,0,0,0-.551,1.121v.548a.714.714,0,0,1-.714.714h-2.854a.714.714,0,0,1-.714-.714v-.55a1.418,1.418,0,0,0-.536-1.108,4.281,4.281,0,0,1-1.269-4.994,4.281,4.281,0,0,1,4.45-2.6,4.281,4.281,0,0,1,3.723,3.562Z" transform="translate(-2005.636 1029.276)" fill="#fff" opacity="0.66"/>
    <g id="Group_1165" data-name="Group 1165" transform="translate(209 588)">
      <path id="Path_2838" data-name="Path 2838" d="M2279.3-409.07h0a.594.594,0,0,1,.594.593.593.593,0,0,0,.593.593h0a.594.594,0,0,0,.593-.594,1.783,1.783,0,0,0-1.781-1.779h0a.594.594,0,0,0-.593.594.594.594,0,0,0,.594.593Z" transform="translate(-2236.743 429.072)" fill="#fff"/>
      <path id="Path_2839" data-name="Path 2839" d="M2252.679-416.329a.63.63,0,0,1,.24.493v.493a1.275,1.275,0,0,0,.64,1.1v.818a1.926,1.926,0,0,0,.8,1.554,1.9,1.9,0,0,0,1.12.363,2.007,2.007,0,0,0,.63-.1,1.947,1.947,0,0,0,1.292-1.881v-.753a1.276,1.276,0,0,0,.638-1.1v-.491a.656.656,0,0,1,.256-.508,4.448,4.448,0,0,0,1.607-4.2,4.478,4.478,0,0,0-4.781-3.743,4.478,4.478,0,0,0-4.118,4.462A4.449,4.449,0,0,0,2252.679-416.329Zm3.027,3.506a.652.652,0,0,1-.6-.083.643.643,0,0,1-.268-.519v-.639h1.281v.575A.693.693,0,0,1,2255.706-412.823Zm-2.351-9.388a3.16,3.16,0,0,1,2.119-.808,3.384,3.384,0,0,1,.394.023,3.224,3.224,0,0,1,2.768,2.655,3.18,3.18,0,0,1-1.145,3,1.929,1.929,0,0,0-.732,1.5v.489l-2.559,0v-.493a1.9,1.9,0,0,0-.72-1.492,3.194,3.194,0,0,1-1.2-2.413,3.193,3.193,0,0,1,1.074-2.471Z" transform="translate(-2213.312 440.944)" fill="#fff"/>
      <path id="Path_2840" data-name="Path 2840" d="M2083.446-532.07h-55.358a2.639,2.639,0,0,0-2.635,2.637v14.5h-1.319a14.515,14.515,0,0,0-14.5,14.5v10.545a3.959,3.959,0,0,0,3.954,3.954h3.463c.44.656.85,1.188,1.126,1.545l.054,1.636a1.446,1.446,0,0,1-.743,1.28l-6.679,3.7a7.418,7.418,0,0,0-3.812,6.507v2.464a1.319,1.319,0,0,0,.386.933,1.318,1.318,0,0,0,.931.386H2072.9a1.317,1.317,0,0,0,.931-.386,1.318,1.318,0,0,0,.386-.933v-2.635a3.958,3.958,0,0,0-3.954-3.954h-7.908v-5.273h21.088a2.639,2.639,0,0,0,2.636-2.635v-46.132A2.641,2.641,0,0,0,2083.446-532.07Zm-11.862,60.631v1.318h-29v-.993a7.552,7.552,0,0,0-.2-1.643h27.875A1.32,1.32,0,0,1,2071.583-471.439Zm-19.771-3.954v-5.273h7.908v5.273Zm-42.176,4.126a4.776,4.776,0,0,1,2.45-4.2l6.674-3.7a4.079,4.079,0,0,0,2.108-3.591v-1.753a2.049,2.049,0,0,0-.414-1.246l-.137-.181h3.817a1.318,1.318,0,0,0,1.319-1.318,1.319,1.319,0,0,0-1.319-1.319h-5.6a10.131,10.131,0,0,1-.989-2.433v-9.43l0-.017V-501.6a5.085,5.085,0,0,1,1.294-3.477c1.211-1.294,3.216-1.951,5.959-1.951a13.847,13.847,0,0,1,1.977.131,6.544,6.544,0,0,1,3.982,1.82,4.615,4.615,0,0,1,.335.422,5.108,5.108,0,0,1,.954,3.152v10.494c-.018.06-.037.119-.057.178a14.29,14.29,0,0,1-1.823,3.718c-.261.38-.541.749-.839,1.1l-.19.249a2.049,2.049,0,0,0-.416,1.25v1.829a4.051,4.051,0,0,0,.141,1.1,4.03,4.03,0,0,0,.568,1.231,4.05,4.05,0,0,0,1.456,1.3l6.47,3.653a4.767,4.767,0,0,1,2.277,2.533,4.745,4.745,0,0,1,.32,1.753v.993h-30.314Zm39.541-4.126h-7.938a7.235,7.235,0,0,0-2.64-2.331l-5.208-2.942h15.786Zm-14.5-18.453v-5.272h2.637v5.272Zm48.767,5.272h-49.457a11.381,11.381,0,0,0,.658-1.989,1.319,1.319,0,0,0,.032-.29v-.355h2.637a2.639,2.639,0,0,0,2.635-2.637v-6.591a14.512,14.512,0,0,0-11.862-14.246v-9.479h55.358Zm-55.358-40.859h55.358v2.637h-55.358Zm-13.18,35.587h-2.637v-5.272h2.637Zm-1.318,5.272a1.32,1.32,0,0,1-1.319-1.318v-1.318h2.637v.355a1.319,1.319,0,0,0,.032.29,11.382,11.382,0,0,0,.658,1.989Zm1.313-13.18h-2.553a11.877,11.877,0,0,1,11.784-10.545h1.319a11.615,11.615,0,0,1,1.318.076,11.875,11.875,0,0,1,10.466,10.469h-2.555a7.663,7.663,0,0,0-1.966-5.082,9.234,9.234,0,0,0-5.945-2.715,16.811,16.811,0,0,0-1.977-.111c-3.528,0-6.194.951-7.922,2.827A7.647,7.647,0,0,0,2014.9-501.754Zm68.542,18.453h-52.091v-1.023l.054-.069c.275-.357.684-.888,1.125-1.545h50.912Z" transform="translate(-2007 532.07)" fill="#fff"/>
    </g>
    <path id="Path_2842" data-name="Path 2842" d="M2356.232-395.455h-4.613a.461.461,0,0,1-.461-.461.461.461,0,0,1,.461-.462h4.613a.461.461,0,0,1,.462.462A.461.461,0,0,1,2356.232-395.455Z" transform="translate(-2089 1005.337)" fill="#fff"/>
    <path id="Path_2843" data-name="Path 2843" d="M2371.384-405.557a.46.46,0,0,1-.326-.135l-1.845-1.845a.461.461,0,0,1,0-.652.461.461,0,0,1,.652,0l1.845,1.845a.461.461,0,0,1,0,.652A.461.461,0,0,1,2371.384-405.557Z" transform="translate(-2104.152 1015.439)" fill="#fff"/>
    <path id="Path_2844" data-name="Path 2844" d="M2369.539-393.61a.46.46,0,0,1-.326-.135.461.461,0,0,1,0-.652l1.845-1.845a.461.461,0,0,1,.652,0,.461.461,0,0,1,0,.652l-1.845,1.845A.459.459,0,0,1,2369.539-393.61Z" transform="translate(-2104.152 1005.337)" fill="#fff"/>
    <path id="Path_2845" data-name="Path 2845" d="M2334.622-395.455h-.923a.461.461,0,0,1-.461-.461.461.461,0,0,1,.461-.462h.923a.462.462,0,0,1,.461.462A.461.461,0,0,1,2334.622-395.455Z" transform="translate(-2073.848 1005.337)" fill="#fff"/>
    <path id="Path_2846" data-name="Path 2846" d="M2325.869-375.495h4.613a.461.461,0,0,1,.462.461.462.462,0,0,1-.462.461h-4.613a.461.461,0,0,1-.461-.461A.461.461,0,0,1,2325.869-375.495Z" transform="translate(-2067.227 987.679)" fill="#fff"/>
    <path id="Path_2847" data-name="Path 2847" d="M2325.868-375.495a.46.46,0,0,1,.326.135l1.845,1.845a.46.46,0,0,1,0,.652.46.46,0,0,1-.652,0l-1.845-1.845a.46.46,0,0,1,0-.652A.459.459,0,0,1,2325.868-375.495Z" transform="translate(-2067.226 987.679)" fill="#fff"/>
    <path id="Path_2848" data-name="Path 2848" d="M2327.713-387.442a.46.46,0,0,1,.326.135.46.46,0,0,1,0,.652l-1.845,1.845a.46.46,0,0,1-.652,0,.46.46,0,0,1,0-.652l1.845-1.845A.46.46,0,0,1,2327.713-387.442Z" transform="translate(-2067.226 997.781)" fill="#fff"/>
    <path id="Path_2849" data-name="Path 2849" d="M2367.683-375.495h.923a.461.461,0,0,1,.461.461.461.461,0,0,1-.461.461h-.923a.461.461,0,0,1-.461-.461A.461.461,0,0,1,2367.683-375.495Z" transform="translate(-2102.583 987.679)" fill="#fff"/>
  </g>
</svg>
