<svg id="_3-03-01" data-name="3-03-01" xmlns="http://www.w3.org/2000/svg" width="120.848" height="134.229" viewBox="0 0 120.848 134.229">
  <path id="Path_3027" data-name="Path 3027" d="M648.239,670.535c-1.369-.239-2.738-.087-4.107-.217a1.8,1.8,0,0,0-2.021,1.2c-2.347,4.759-4.716,9.5-7.084,14.255-.609,1.217-1.239,2.434-1.891,3.759-.174-.3-.282-.522-.391-.739-2.043-4.085-4.107-8.149-6.15-12.234-.891-1.8-1.8-3.607-2.695-5.411a1.266,1.266,0,0,0-1.239-.847c-1.217.022-2.434.022-3.651.043a6.83,6.83,0,0,0-6.454,7.78c.782,4.368,1.63,8.736,2.5,13.082.5,2.564.891,5.15,1.608,7.693,1.065,3.8,3.586,5.737,7.54,5.737,6.128,0,12.234,0,18.362.022a6.675,6.675,0,0,0,2.064-.283,7.473,7.473,0,0,0,4.8-4.846,24.225,24.225,0,0,0,1.043-4.672c.913-4.824,1.76-9.648,2.782-14.451a12.712,12.712,0,0,0,.478-4.064A6.983,6.983,0,0,0,648.239,670.535Z" transform="translate(-532.925 -570.423)" fill="#006bc2"/>
  <path id="Path_3028" data-name="Path 3028" d="M412.933,375.741a33.023,33.023,0,0,0-3.846-14.885,34.259,34.259,0,0,0-64.409,19.97,33.886,33.886,0,0,0,8.8,19.058c.891,1,1.934,1.847,2.847,2.825a14.908,14.908,0,0,1,3.173,5.737,29.324,29.324,0,0,1,1.434,9.475c-.043,3.412.63,3.846,3.825,3.8,4.65-.087,9.322-.022,13.973-.022h15.537a2.29,2.29,0,0,0,1.152-.239,2,2,0,0,0,1.13-2,35.33,35.33,0,0,1,1.239-10.344,15.79,15.79,0,0,1,4.151-7.28A33.986,33.986,0,0,0,412.933,375.741Zm-14.125,23.3a17.463,17.463,0,0,0-4.172,6.324,33.05,33.05,0,0,0-2.195,9.822,17.141,17.141,0,0,0-.109,1.825c.022.522-.2.587-.63.587-2.912-.022-5.8,0-8.714,0h-4.281q-6.519,0-13.038.022c-.456,0-.565-.109-.587-.565a32.4,32.4,0,0,0-3.02-13.147,19.125,19.125,0,0,0-4.085-5.346,29.978,29.978,0,0,1-.152-43.374,28.375,28.375,0,0,1,16.646-8.106,29.276,29.276,0,0,1,24.468,7.627,28.415,28.415,0,0,1,9.388,17.6C409.8,382.8,406.588,391.734,398.809,399.036Z" transform="translate(-323.131 -313.765)" fill="#006bc2"/>
  <path id="Path_3029" data-name="Path 3029" d="M673.228,563.525c.13-7.28-5.476-13.647-12.908-13.625a13.115,13.115,0,1,0,12.908,13.625Z" transform="translate(-559.957 -476.19)" fill="#006bc2"/>
  <path id="Path_3030" data-name="Path 3030" d="M448.3,720.1H420.835a4.394,4.394,0,0,0-1.2.152,5.118,5.118,0,0,0-3.868,5.5,5.042,5.042,0,0,0,5.085,4.563h16.95c3.586,0,7.171.043,10.735-.021a5.034,5.034,0,0,0,4.846-5.324A5.109,5.109,0,0,0,448.3,720.1Zm.065,5.954a5.105,5.105,0,0,1-.565.022H421.074c-.478,0-.869-.13-1.021-.609a.836.836,0,0,1,.326-.978,1.094,1.094,0,0,1,.739-.152h26.794c.761,0,1.087.283,1.13.934A.73.73,0,0,1,448.367,726.054Z" transform="translate(-378.948 -609.405)" fill="#006bc2"/>
  <path id="Path_3031" data-name="Path 3031" d="M458.972,777.2H439.784a5.107,5.107,0,0,0,.022,10.213h19.166a5.137,5.137,0,0,0,.826-.043,5.12,5.12,0,0,0-.826-10.17Zm.239,5.976a2.971,2.971,0,0,1-.63.043H439.936c-.63-.022-1-.37-1-.913,0-.522.391-.848,1.021-.848H458.82a.891.891,0,0,1,.956.543A.811.811,0,0,1,459.211,783.176Z" transform="translate(-393.791 -654.097)" fill="#006bc2"/>
  <path id="Path_3032" data-name="Path 3032" d="M682.861,368.065a2.761,2.761,0,0,0,1.065-.326c4.064-2.195,8.106-4.39,12.169-6.584a2.151,2.151,0,1,0-2.064-3.759c-2.086,1.108-4.151,2.238-6.215,3.368-2.043,1.108-4.085,2.195-6.128,3.325a2.112,2.112,0,0,0,1.174,3.977Z" transform="translate(-586.214 -325.256)" fill="#006bc2"/>
  <path id="Path_3033" data-name="Path 3033" d="M262.147,363.606q-6.291-3.423-12.582-6.8a1.734,1.734,0,0,0-1.021-.239,1.914,1.914,0,0,0-1.152.3,2.231,2.231,0,0,0,.217,3.781l12.452,6.715a2.255,2.255,0,0,0,2.934-.913A2.1,2.1,0,0,0,262.147,363.606Z" transform="translate(-246.446 -324.861)" fill="#006bc2"/>
  <path id="Path_3034" data-name="Path 3034" d="M349.759,269.8a2.238,2.238,0,0,0,1.825,1.173,2.019,2.019,0,0,0,1.456-.543,2.182,2.182,0,0,0,.261-2.934c-2.456-3.868-4.933-7.714-7.388-11.582a2.886,2.886,0,0,0-.456-.565,2.107,2.107,0,0,0-3.216,2.673c.521.869,1.086,1.695,1.63,2.542C345.826,263.629,347.8,266.714,349.759,269.8Z" transform="translate(-321.172 -245.201)" fill="#006bc2"/>
  <path id="Path_3035" data-name="Path 3035" d="M492.487,227.758a2.093,2.093,0,0,0,2.13,1.478,2.168,2.168,0,0,0,2-2.217V212.895a2.11,2.11,0,1,0-4.216,0V227.02A2.093,2.093,0,0,0,492.487,227.758Z" transform="translate(-438.953 -210.7)" fill="#006bc2"/>
  <path id="Path_3036" data-name="Path 3036" d="M613.818,273.6a2.308,2.308,0,0,0,1.738-1.087c2.564-3.868,5.15-7.758,7.714-11.626a2.022,2.022,0,0,0-.022-2.39,1.933,1.933,0,0,0-2.086-.847,2.233,2.233,0,0,0-1.478,1.065l-6.454,9.714c-.435.674-.891,1.326-1.326,2a1.985,1.985,0,0,0-.044,2.129A2.022,2.022,0,0,0,613.818,273.6Z" transform="translate(-532.23 -247.415)" fill="#006bc2"/>
  <path id="Path_3037" data-name="Path 3037" d="M692.2,678.144c-1.217,1.608-2.434,3.216-3.651,4.8a.955.955,0,0,0-.109,1.108c.913,1.847,1.847,3.694,2.76,5.541.391.8.8,1.608,1.217,2.434.065-.065.13-.087.152-.13,1.326-2.629,2.63-5.259,3.955-7.91a.9.9,0,0,0-.152-1.021c-1.217-1.608-2.434-3.194-3.65-4.8C692.523,677.883,692.414,677.84,692.2,678.144Z" transform="translate(-592.29 -576.402)" fill="#006bc2"/>
  <path id="Path_3038" data-name="Path 3038" d="M524.245,473.221a35.6,35.6,0,0,0-4.8-.478,13.165,13.165,0,0,0-3.064.13c-.3.065-.674.239-.913-.174-.022.065-.065.13-.087.2a15.163,15.163,0,0,1-1.825,5.172,132.4,132.4,0,0,1-8.258,12.517c-2.673,3.651-5.367,7.3-8.149,10.887-.2.239-.348.435-.13.782q2.705,4.4,5.367,8.8c.2.326.282.283.5,0,1.412-1.912,2.868-3.8,4.281-5.715,4.15-5.563,8.279-11.148,12.082-16.972a31.449,31.449,0,0,0,4.933-10.713,15.1,15.1,0,0,0,.37-4.737C524.527,473.113,524.506,473.265,524.245,473.221Z" transform="translate(-442.483 -415.766)" fill="#0079d8"/>
  <path id="Path_3039" data-name="Path 3039" d="M471.651,407.784a29.754,29.754,0,0,1,6.367.239,2.745,2.745,0,0,0,1.391,0,10.373,10.373,0,0,0-.282-2.586,19.814,19.814,0,0,0-6.41-10.713,18.765,18.765,0,0,0-11.365-4.868,21.709,21.709,0,0,0-8.106.956,19.4,19.4,0,0,0-11.474,9,18.622,18.622,0,0,0-2.412,7.258,16.212,16.212,0,0,0,0,3.977c.087-.3.152-.5.2-.674a39.58,39.58,0,0,1,1.543-4.955,16.018,16.018,0,0,1,4.064-6.215,8.166,8.166,0,0,1,12.734,2.608c1.108,2.3.652,4.52-.435,6.693-.739,1.521-1.738,2.868-2.608,4.324.739-.109,1.26-.674,1.912-.978,1.174-.543,2.3-1.2,3.5-1.673.717-.283,1.456-.522,2.173-.847a2.249,2.249,0,0,1,1.065-.174,2.737,2.737,0,0,0,.13-.391,9.482,9.482,0,0,0,.087-3.412,11.646,11.646,0,0,0-2.629-6.085,12.246,12.246,0,0,0-10.3-4.107c-.652.043-1.3.217-1.956.326.087-.217.261-.261.413-.348a13.9,13.9,0,0,1,14.1-.326,12.705,12.705,0,0,1,6.8,8.931,15.72,15.72,0,0,1,.152,4.042A3.514,3.514,0,0,0,471.651,407.784Z" transform="translate(-397.342 -350.872)" fill="#0064b6"/>
  <path id="Path_3040" data-name="Path 3040" d="M583.034,472.493a13.174,13.174,0,0,1,3.064-.13,35.584,35.584,0,0,1,4.8.478c.261.043.282-.109.3-.3a2.742,2.742,0,0,1-1.391,0,29.706,29.706,0,0,0-6.367-.239,4.669,4.669,0,0,1-1.347.044C582.361,472.754,582.752,472.558,583.034,472.493Z" transform="translate(-509.161 -415.386)" fill="#0064b6"/>
  <path id="Path_3041" data-name="Path 3041" d="M483.81,479.8a38.828,38.828,0,0,0-5.672,2.716,2.616,2.616,0,0,1-.652.326c-.087.022-.217.087-.217-.109-1.478,2.021-2.955,4.064-4.455,6.085-1.608,2.173-3.216,4.346-4.759,6.584a.658.658,0,0,0-.087.848c.934,1.565,1.869,3.129,2.781,4.694.217.391.348.391.609.043,1.347-1.8,2.738-3.586,4.107-5.367a120.167,120.167,0,0,0,8.627-12.3,14.511,14.511,0,0,0,1.825-4.216h0C485.223,479.317,484.527,479.534,483.81,479.8Z" transform="translate(-419.737 -420.775)" fill="#0076d2"/>
  <path id="Path_3042" data-name="Path 3042" d="M518.784,479.194c-.7.326-1.456.543-2.173.848-1.217.478-2.325,1.13-3.5,1.673a7.96,7.96,0,0,1-1.912.978c0,.2.13.109.217.109a2.614,2.614,0,0,0,.652-.326,34.832,34.832,0,0,1,5.672-2.716c.7-.261,1.391-.5,2.108-.717h0A2.028,2.028,0,0,0,518.784,479.194Z" transform="translate(-453.668 -420.718)" fill="#0076d2"/>
</svg>
