<svg id="organization" xmlns="http://www.w3.org/2000/svg" width="39.014" height="39.596" viewBox="0 0 39.014 39.596">
  <g id="Group_211" data-name="Group 211" transform="translate(0 25.514)">
    <g id="Group_210" data-name="Group 210">
      <path id="Path_1167" data-name="Path 1167" d="M34.908,333.376a3.516,3.516,0,0,0,.634-2.018v-.694a3.539,3.539,0,0,0-7.078,0v.694a3.516,3.516,0,0,0,.634,2.018,4.231,4.231,0,0,0-3.344,1.811,4.231,4.231,0,0,0-3.344-1.811,3.516,3.516,0,0,0,.634-2.018v-.694a3.539,3.539,0,0,0-7.078,0v.694a3.516,3.516,0,0,0,.634,2.018,4.231,4.231,0,0,0-3.344,1.811,4.231,4.231,0,0,0-3.344-1.811,3.516,3.516,0,0,0,.634-2.018v-.694a3.539,3.539,0,0,0-7.078,0v.694a3.516,3.516,0,0,0,.634,2.018A4.237,4.237,0,0,0,0,337.6v2.842a.762.762,0,0,0,.762.762h37.49a.762.762,0,0,0,.762-.762V337.6A4.237,4.237,0,0,0,34.908,333.376ZM5,330.665a2.015,2.015,0,0,1,4.03,0v.694a2.015,2.015,0,0,1-4.03,0Zm7.5,9.021H1.524V337.6A2.712,2.712,0,0,1,4.233,334.9H6.248v3.044a.762.762,0,0,0,1.524,0V334.9H9.787A2.712,2.712,0,0,1,12.5,337.6Zm5-9.021a2.015,2.015,0,0,1,4.03,0v.694a2.015,2.015,0,0,1-4.03,0Zm7.5,9.021H14.021V337.6A2.712,2.712,0,0,1,16.73,334.9h2.025v3.044a.762.762,0,0,0,1.524,0V334.9h2.005a2.712,2.712,0,0,1,2.709,2.708Zm5-9.021a2.015,2.015,0,0,1,4.03,0v.694a2.015,2.015,0,0,1-4.03,0Zm7.5,9.021H26.517V337.6a2.712,2.712,0,0,1,2.709-2.708h2.034v3.044a.762.762,0,0,0,1.524,0V334.9h2A2.712,2.712,0,0,1,37.49,337.6Z" transform="translate(0 -327.127)" fill="#fff"/>
    </g>
  </g>
  <g id="Group_213" data-name="Group 213" transform="translate(18.745 14.78)">
    <g id="Group_212" data-name="Group 212">
      <path id="Path_1168" data-name="Path 1168" d="M247.3,191.223a.761.761,0,1,0,.223.539A.767.767,0,0,0,247.3,191.223Z" transform="translate(-246 -191)" fill="#fff"/>
    </g>
  </g>
  <g id="Group_215" data-name="Group 215" transform="translate(6.251)">
    <g id="Group_214" data-name="Group 214">
      <path id="Path_1169" data-name="Path 1169" d="M98.954,10.057h-.314a4.515,4.515,0,0,0,1.148-3.011V4.535a4.535,4.535,0,1,0-9.069,0V7.046a4.516,4.516,0,0,0,1.148,3.011h-.314a5.643,5.643,0,0,0-5.637,5.637v2.283a.762.762,0,0,0,.762.762h7.813v1.828H82.762a.762.762,0,0,0-.762.762v1.757a.762.762,0,1,0,1.523,0v-1H94.492v1a.762.762,0,1,0,1.523,0v-1h2.6a.762.762,0,0,0,0-1.523h-2.6V18.738h7.813a.762.762,0,0,0,.762-.762V15.694A5.643,5.643,0,0,0,98.954,10.057Zm-3.7-8.534a3.016,3.016,0,0,1,2.979,2.57L96.889,3.3a.762.762,0,0,0-.97.168,3.375,3.375,0,0,1-2.593,1.21H92.243V4.535h0A3.015,3.015,0,0,1,95.254,1.523ZM92.243,6.2h1.083a4.894,4.894,0,0,0,3.309-1.283l1.63.958V7.046a3.011,3.011,0,1,1-6.023,0Zm10.825,11.01H87.44V15.694a4.118,4.118,0,0,1,4.113-4.113h2.938v.836a.762.762,0,1,0,1.523,0V11.58h2.938a4.118,4.118,0,0,1,4.113,4.113Z" transform="translate(-82)" fill="#fff"/>
    </g>
  </g>
  <g id="Group_217" data-name="Group 217" transform="translate(24.847 20.893)">
    <g id="Group_216" data-name="Group 216">
      <path id="Path_1170" data-name="Path 1170" d="M327.38,270.223a.761.761,0,1,0,.223.539A.768.768,0,0,0,327.38,270.223Z" transform="translate(-326.08 -270)" fill="#fff"/>
    </g>
  </g>
  <g id="Group_219" data-name="Group 219" transform="translate(27.325 20.91)">
    <g id="Group_218" data-name="Group 218">
      <path id="Path_1171" data-name="Path 1171" d="M363.274,270h-3.936a.762.762,0,1,0,0,1.523h3.175v1a.762.762,0,0,0,1.523,0v-1.757A.762.762,0,0,0,363.274,270Z" transform="translate(-358.576 -270)" fill="#fff"/>
    </g>
  </g>
</svg>
