<svg id="Page-1" xmlns="http://www.w3.org/2000/svg" width="38.349" height="38.349" viewBox="0 0 38.349 38.349">
  <g id="_072---Photography-Website" data-name="072---Photography-Website">
    <path id="Shape" d="M35.153,0H3.2A3.2,3.2,0,0,0,0,3.2V35.153a3.2,3.2,0,0,0,3.2,3.2H35.153a3.2,3.2,0,0,0,3.2-3.2V3.2A3.2,3.2,0,0,0,35.153,0Zm0,37.07H3.2a1.917,1.917,0,0,1-1.917-1.917V3.2A1.917,1.917,0,0,1,3.2,1.278H35.153A1.917,1.917,0,0,1,37.07,3.2V5.113H3.2a.639.639,0,0,0,0,1.278H37.07V35.153A1.917,1.917,0,0,1,35.153,37.07Z" fill="#fff"/>
    <circle id="Oval" cx="0.5" cy="0.5" r="0.5" transform="translate(3.001 3)" fill="#fff"/>
    <circle id="Oval-2" data-name="Oval" cx="0.5" cy="0.5" r="0.5" transform="translate(5.001 3)" fill="#fff"/>
    <circle id="Oval-3" data-name="Oval" cx="0.5" cy="0.5" r="0.5" transform="translate(7.001 3)" fill="#fff"/>
    <path id="Shape-2" data-name="Shape" d="M38.639,5.278H48.865a.639.639,0,1,0,0-1.278H38.639a.639.639,0,0,0,0,1.278Z" transform="translate(-13.713 -1.443)" fill="#fff"/>
    <path id="Shape-3" data-name="Shape" d="M35.957,12H5.278A1.278,1.278,0,0,0,4,13.278V28.618A1.278,1.278,0,0,0,5.278,29.9H35.957a1.278,1.278,0,0,0,1.278-1.278V13.278A1.278,1.278,0,0,0,35.957,12ZM5.278,28.618V13.278H35.957V28.618Z" transform="translate(-1.443 -4.33)" fill="#fff"/>
    <path id="Shape-4" data-name="Shape" d="M31.422,18.557H30.5a.639.639,0,0,1-.621-.484l-.155-.621A1.917,1.917,0,0,0,27.867,16H23.472a1.917,1.917,0,0,0-1.861,1.452l-.155.62a.639.639,0,0,1-.621.484h-.919A1.917,1.917,0,0,0,18,20.474v6.391a1.917,1.917,0,0,0,1.917,1.917h11.5a1.917,1.917,0,0,0,1.917-1.917V20.474A1.917,1.917,0,0,0,31.422,18.557Zm.639,8.309a.639.639,0,0,1-.639.639h-11.5a.639.639,0,0,1-.639-.639V20.474a.639.639,0,0,1,.639-.639h.919A1.917,1.917,0,0,0,22.7,18.383l.155-.62a.639.639,0,0,1,.621-.484h4.395a.639.639,0,0,1,.621.484l.155.621A1.917,1.917,0,0,0,30.5,19.835h.919a.639.639,0,0,1,.639.639Z" transform="translate(-6.495 -5.774)" fill="#fff"/>
    <path id="Shape-5" data-name="Shape" d="M28.2,22a3.2,3.2,0,1,0,3.2,3.2A3.2,3.2,0,0,0,28.2,22Zm0,5.113A1.917,1.917,0,1,1,30.113,25.2,1.917,1.917,0,0,1,28.2,27.113Z" transform="translate(-9.021 -7.939)" fill="#fff"/>
    <path id="Shape-6" data-name="Shape" d="M13.587,44H4.639a.639.639,0,1,0,0,1.278h8.948a.639.639,0,1,0,0-1.278Z" transform="translate(-1.443 -15.878)" fill="#fff"/>
    <path id="Shape-7" data-name="Shape" d="M4.639,49.278H6.557a.639.639,0,1,0,0-1.278H4.639a.639.639,0,1,0,0,1.278Z" transform="translate(-1.443 -17.321)" fill="#fff"/>
    <path id="Shape-8" data-name="Shape" d="M16.113,48H11.639a.639.639,0,1,0,0,1.278h4.474a.639.639,0,1,0,0-1.278Z" transform="translate(-3.969 -17.321)" fill="#fff"/>
    <path id="Shape-9" data-name="Shape" d="M13.587,52H4.639a.639.639,0,1,0,0,1.278h8.948a.639.639,0,1,0,0-1.278Z" transform="translate(-1.443 -18.765)" fill="#fff"/>
    <path id="Shape-10" data-name="Shape" d="M31.587,44H22.639a.639.639,0,1,0,0,1.278h8.948a.639.639,0,1,0,0-1.278Z" transform="translate(-7.939 -15.878)" fill="#fff"/>
    <path id="Shape-11" data-name="Shape" d="M35.557,48H33.639a.639.639,0,1,0,0,1.278h1.917a.639.639,0,1,0,0-1.278Z" transform="translate(-11.908 -17.321)" fill="#fff"/>
    <path id="Shape-12" data-name="Shape" d="M22.639,49.278h4.474a.639.639,0,1,0,0-1.278H22.639a.639.639,0,1,0,0,1.278Z" transform="translate(-7.939 -17.321)" fill="#fff"/>
    <path id="Shape-13" data-name="Shape" d="M31.587,52H22.639a.639.639,0,1,0,0,1.278h8.948a.639.639,0,1,0,0-1.278Z" transform="translate(-7.939 -18.765)" fill="#fff"/>
    <path id="Shape-14" data-name="Shape" d="M49.587,44H40.639a.639.639,0,0,0,0,1.278h8.948a.639.639,0,1,0,0-1.278Z" transform="translate(-14.434 -15.878)" fill="#fff"/>
    <path id="Shape-15" data-name="Shape" d="M40.639,49.278h1.917a.639.639,0,1,0,0-1.278H40.639a.639.639,0,1,0,0,1.278Z" transform="translate(-14.434 -17.321)" fill="#fff"/>
    <path id="Shape-16" data-name="Shape" d="M52.113,48H47.639a.639.639,0,1,0,0,1.278h4.474a.639.639,0,1,0,0-1.278Z" transform="translate(-16.96 -17.321)" fill="#fff"/>
    <path id="Shape-17" data-name="Shape" d="M49.587,52H40.639a.639.639,0,0,0,0,1.278h8.948a.639.639,0,1,0,0-1.278Z" transform="translate(-14.434 -18.765)" fill="#fff"/>
  </g>
</svg>
