<?xml version="1.0" standalone="no"?>
<!DOCTYPE svg PUBLIC "-//W3C//DTD SVG 20010904//EN"
 "http://www.w3.org/TR/2001/REC-SVG-20010904/DTD/svg10.dtd">
<svg version="1.0" xmlns="http://www.w3.org/2000/svg"
 width="512.000000pt" height="512.000000pt" viewBox="0 0 512.000000 512.000000"
 preserveAspectRatio="xMidYMid meet">
<metadata>
Created by potrace 1.16, written by Peter Selinger 2001-2019
</metadata>
<g transform="translate(0.000000,512.000000) scale(0.100000,-0.100000)"
fill="#000000" stroke="none">
<path d="M203 4958 c-174 -172 -196 -198 -191 -231 3 -19 32 5 192 163 103
102 192 193 197 203 8 14 5 17 -17 17 -21 0 -60 -33 -181 -152z"/>
<path d="M303 4858 c-140 -139 -264 -265 -275 -281 -10 -15 -18 -37 -16 -50 3
-18 49 23 292 263 158 157 292 293 297 303 8 14 5 17 -17 17 -22 0 -75 -47
-281 -252z"/>
<path d="M402 4758 c-194 -194 -362 -365 -373 -381 -11 -15 -19 -37 -17 -50 4
-18 67 40 392 363 213 212 392 393 397 403 8 14 5 17 -18 17 -22 0 -89 -62
-381 -352z"/>
<path d="M502 4658 c-249 -249 -462 -465 -473 -481 -11 -15 -19 -37 -17 -50 4
-18 84 57 492 463 268 267 492 493 497 503 8 14 5 17 -18 17 -22 0 -104 -76
-481 -452z"/>
<path d="M602 4558 c-304 -304 -562 -565 -573 -581 -11 -15 -19 -37 -17 -50 4
-18 101 75 592 563 323 322 592 593 597 603 8 14 5 17 -18 17 -23 0 -118 -91
-581 -552z"/>
<path d="M702 4458 c-359 -359 -662 -665 -673 -681 -11 -15 -19 -37 -17 -50 3
-18 49 23 290 262 l286 283 -5 -68 -5 -69 -284 -286 c-230 -231 -284 -291
-284 -312 0 -15 3 -27 7 -27 4 0 132 125 285 277 177 177 279 272 282 262 2
-8 9 -30 15 -48 l11 -35 -300 -301 c-246 -247 -300 -306 -300 -329 0 -22 3
-25 18 -17 9 5 149 142 311 305 l295 295 27 -37 28 -37 -340 -341 c-279 -280
-339 -345 -339 -367 0 -23 3 -26 18 -18 9 5 170 163 357 350 l339 341 33 -32
33 -32 -390 -391 c-320 -321 -390 -396 -390 -418 0 -15 3 -27 7 -27 4 0 186
179 405 397 l398 398 32 -33 33 -32 -438 -438 c-360 -361 -437 -443 -437 -465
0 -15 3 -27 7 -27 4 0 209 201 456 448 l448 447 30 -34 31 -34 -486 -486
c-405 -406 -486 -491 -486 -514 0 -23 3 -26 18 -18 9 5 235 228 502 495 l484
486 33 -32 33 -32 -535 -536 c-443 -444 -535 -540 -535 -563 0 -15 3 -27 7
-27 4 0 253 246 554 546 l546 545 28 -36 28 -37 -582 -582 c-482 -483 -581
-586 -581 -609 0 -15 3 -27 7 -27 4 0 274 267 600 592 l593 593 32 -33 33 -32
-633 -633 c-526 -526 -632 -637 -632 -660 0 -15 3 -27 7 -27 4 0 296 289 649
641 l642 642 30 -34 31 -34 -680 -680 c-570 -571 -679 -685 -679 -708 0 -23 3
-26 18 -18 9 5 323 316 697 690 l680 681 32 -32 33 -32 -730 -731 c-609 -609
-730 -735 -730 -758 0 -15 3 -27 7 -27 4 0 340 332 745 737 l738 738 32 -33
33 -32 -778 -778 c-649 -649 -777 -782 -777 -805 0 -15 3 -27 7 -27 4 0 362
354 795 787 l788 788 32 -33 33 -32 -828 -828 c-696 -697 -827 -832 -827 -855
0 -23 3 -26 17 -18 10 5 389 381 843 835 l825 826 32 -32 33 -32 -875 -876
c-737 -738 -875 -880 -875 -903 0 -23 3 -26 18 -18 9 5 411 404 892 885 l875
876 32 -32 33 -32 -925 -926 c-774 -775 -925 -930 -925 -953 0 -15 3 -27 7
-27 4 0 427 420 940 932 l933 933 32 -33 33 -32 -973 -973 c-814 -814 -972
-977 -972 -1000 0 -15 3 -27 7 -27 4 0 173 165 376 368 273 272 362 355 343
322 -13 -25 -32 -72 -41 -105 -17 -59 -21 -64 -351 -396 -275 -276 -334 -340
-334 -362 0 -23 3 -26 18 -18 9 5 159 152 332 326 l315 315 11 -52 11 -53
-344 -346 c-280 -282 -343 -350 -343 -372 0 -15 3 -27 7 -27 4 0 163 156 354
346 l346 346 22 -37 c11 -20 21 -39 21 -43 0 -4 -153 -160 -341 -347 -187
-187 -345 -348 -350 -357 -8 -15 -5 -18 18 -18 22 0 87 60 370 342 l343 342
32 -32 33 -32 -303 -303 c-166 -166 -302 -306 -302 -310 0 -4 12 -7 27 -7 22
0 83 56 327 299 l301 298 44 -19 44 -20 -272 -272 c-149 -149 -271 -275 -271
-279 0 -4 12 -7 27 -7 21 0 79 52 303 275 l276 275 64 0 65 0 -268 -268 c-147
-147 -267 -271 -267 -275 0 -4 12 -7 27 -7 21 0 84 57 327 298 166 163 320
308 344 322 25 14 167 156 344 345 167 176 430 449 586 607 l284 286 31 -35
30 -34 -886 -887 c-488 -488 -887 -891 -887 -895 0 -4 12 -7 27 -7 23 0 171
144 905 877 l878 878 32 -33 33 -32 -838 -838 c-460 -460 -837 -841 -837 -845
0 -4 12 -7 27 -7 23 0 163 136 853 825 l826 825 32 -33 32 -32 -776 -775
c-426 -426 -780 -783 -785 -792 -8 -15 -5 -18 18 -18 23 0 151 123 803 775
l776 775 32 -33 32 -32 -726 -725 c-399 -399 -730 -733 -735 -742 -8 -15 -5
-18 18 -18 23 0 143 116 750 722 l723 723 32 -33 33 -32 -683 -683 c-375 -375
-682 -686 -682 -690 0 -4 12 -7 27 -7 23 0 140 112 700 672 l673 673 32 -33
33 -32 -633 -633 c-347 -348 -632 -636 -632 -640 0 -4 12 -7 27 -7 23 0 132
105 648 620 l621 620 32 -33 32 -33 -571 -569 c-314 -314 -575 -578 -580 -588
-8 -14 -5 -17 18 -17 23 0 121 93 599 571 l571 571 26 -32 c15 -17 27 -35 27
-38 0 -4 -232 -239 -516 -522 -283 -283 -520 -523 -525 -533 -8 -14 -5 -17 18
-17 23 0 113 86 545 517 l518 518 32 -33 33 -32 -478 -478 c-262 -263 -477
-481 -477 -485 0 -4 12 -7 27 -7 22 0 109 82 496 467 l468 468 29 -35 29 -35
-424 -425 c-234 -234 -425 -429 -425 -433 0 -4 12 -7 27 -7 22 0 101 74 443
415 l416 415 32 -33 32 -33 -366 -364 c-201 -201 -370 -373 -375 -382 -8 -15
-5 -18 18 -18 22 0 91 64 393 365 l365 365 29 -36 29 -36 -322 -322 c-176
-177 -321 -325 -321 -329 0 -4 12 -7 27 -7 22 0 85 58 342 315 l316 314 35
-21 c19 -12 37 -23 39 -25 3 -2 -122 -131 -277 -286 -155 -156 -282 -286 -282
-290 0 -4 12 -7 27 -7 21 0 80 53 308 280 l281 281 58 -7 58 -7 -266 -266
c-146 -147 -266 -270 -266 -274 0 -4 12 -7 27 -7 21 0 79 52 302 274 l276 273
71 21 c38 12 90 36 115 53 24 17 -99 -112 -273 -288 -175 -175 -318 -322 -318
-326 0 -4 12 -7 27 -7 23 0 142 114 711 682 376 376 692 695 703 711 11 15 19
37 17 50 -4 18 -67 -40 -392 -363 -214 -212 -374 -365 -357 -341 17 25 41 77
53 115 l20 71 339 341 c277 278 339 345 339 367 0 15 -3 27 -7 27 -4 0 -156
-149 -339 -331 l-331 -331 -7 58 -7 58 346 346 c282 283 345 351 345 373 0 15
-3 27 -7 27 -4 0 -164 -156 -355 -347 -191 -191 -349 -345 -351 -342 -2 2 -13
20 -25 39 l-21 35 379 381 c312 312 380 385 380 407 0 15 -3 27 -7 27 -4 0
-182 -174 -395 -387 l-388 -388 -32 33 -33 32 428 428 c352 352 427 433 427
455 0 15 -3 27 -7 27 -4 0 -204 -197 -445 -437 l-438 -438 -32 33 -33 32 478
478 c397 398 477 482 477 505 0 23 -3 26 -17 18 -10 -5 -232 -224 -493 -485
l-474 -476 -33 32 -33 32 525 526 c438 439 525 530 525 553 0 23 -3 26 -17 18
-10 -5 -254 -246 -543 -535 l-524 -525 -28 26 c-15 15 -28 31 -28 37 0 6 257
267 570 581 473 474 570 575 570 598 0 15 -3 27 -7 27 -4 0 -270 -262 -590
-582 l-583 -583 -32 33 -33 32 623 623 c517 518 622 627 622 650 0 15 -3 27
-7 27 -4 0 -293 -285 -641 -632 l-633 -633 -30 35 -29 34 670 671 c562 563
670 675 670 698 0 23 -3 26 -17 18 -10 -5 -319 -311 -688 -680 l-670 -671 -32
32 -33 32 720 721 c600 601 720 725 720 748 0 15 -3 27 -7 27 -4 0 -337 -329
-739 -731 l-731 -730 -28 36 -28 37 767 767 c639 640 766 771 766 794 0 15 -3
27 -7 27 -4 0 -358 -350 -785 -777 l-778 -778 -32 33 -33 32 818 818 c683 683
817 822 817 845 0 15 -3 27 -7 27 -4 0 -380 -372 -834 -826 l-827 -827 -30 34
-31 34 864 865 c729 729 865 870 865 893 0 23 -3 26 -17 18 -10 -5 -407 -399
-883 -875 l-865 -866 -32 32 -33 32 915 916 c766 766 915 920 915 943 0 15 -3
27 -7 27 -4 0 -423 -415 -930 -922 l-923 -923 -32 33 -33 32 963 963 c806 806
962 967 962 990 0 15 -3 27 -7 27 -4 0 -374 -366 -822 -812 l-814 -813 497
525 c433 458 501 533 528 590 27 57 67 102 324 361 239 240 294 300 294 322 0
15 -3 27 -7 27 -4 0 -132 -124 -284 -276 l-276 -276 -6 59 -5 58 289 291 c234
235 289 295 289 317 0 15 -3 27 -7 27 -4 0 -138 -130 -298 -290 l-290 -290
-19 46 -19 46 317 317 c257 259 316 322 316 344 0 15 -3 27 -7 27 -4 0 -153
-145 -330 -322 l-323 -323 -32 33 -33 32 308 308 c169 169 307 311 307 315 0
4 -12 7 -27 7 -22 0 -83 -56 -328 -300 l-302 -301 -41 24 -41 23 260 260 c143
142 265 267 270 277 8 14 5 17 -17 17 -22 0 -78 -50 -298 -269 l-271 -269 -58
5 -59 6 256 256 c141 141 256 260 256 264 0 4 -12 7 -27 7 -21 0 -78 -52 -297
-269 -243 -240 -276 -270 -322 -285 -28 -9 -70 -29 -93 -44 -24 -15 -326 -326
-673 -692 -346 -366 -633 -666 -637 -668 -5 -1 -16 9 -26 24 l-17 27 946 946
c520 520 946 950 946 954 0 4 -12 7 -27 7 -23 0 -180 -153 -965 -937 l-938
-938 -32 33 -33 32 898 898 c493 493 897 901 897 905 0 4 -12 7 -27 7 -23 0
-173 -145 -915 -887 l-888 -888 -29 35 -30 35 845 845 c464 465 844 849 844
853 0 4 -12 7 -27 7 -23 0 -165 -137 -863 -835 l-836 -835 -32 33 -32 32 786
785 c432 432 790 793 795 803 8 14 5 17 -18 17 -23 0 -152 -124 -810 -782
l-783 -783 -32 33 -33 32 743 743 c408 408 742 746 742 750 0 4 -12 7 -27 7
-23 0 -149 -122 -760 -732 l-733 -733 -32 33 -33 32 693 693 c380 381 692 696
692 700 0 4 -12 7 -27 7 -23 0 -141 -114 -708 -680 l-681 -680 -32 33 -32 32
631 630 c347 347 635 638 640 648 8 14 5 17 -18 17 -23 0 -130 -102 -658 -630
l-631 -630 -32 33 -32 33 581 579 c319 319 585 588 590 598 8 14 5 17 -18 17
-23 0 -122 -94 -605 -577 l-578 -578 -32 33 -33 32 538 538 c295 295 537 541
537 545 0 4 -12 7 -27 7 -23 0 -118 -91 -556 -527 l-528 -528 -31 34 -30 34
486 486 c267 268 486 490 486 494 0 4 -12 7 -27 7 -22 0 -110 -83 -503 -475
l-476 -475 -32 33 -32 33 426 424 c234 234 430 433 435 443 8 14 5 17 -18 17
-22 0 -100 -72 -454 -426 l-426 -426 -28 37 -28 36 381 382 c210 211 382 386
382 390 0 4 -12 7 -27 7 -22 0 -94 -67 -400 -372 l-373 -373 -32 33 -33 32
333 333 c182 183 332 336 332 340 0 4 -12 7 -27 7 -22 0 -86 -59 -349 -321
l-322 -321 -37 27 -36 28 285 287 c157 157 286 289 286 293 0 4 -12 7 -27 7
-21 0 -80 -53 -309 -281 l-282 -281 -51 13 -52 13 261 261 c143 143 260 264
260 268 0 4 -12 7 -27 7 -21 0 -78 -51 -293 -265 -244 -244 -269 -265 -300
-265 -19 0 -53 -5 -74 -10 -36 -8 -20 10 227 259 147 147 267 270 267 274 0 4
-12 7 -27 7 -23 0 -137 -110 -681 -652z"/>
<path d="M4496 650 c-339 -338 -622 -623 -627 -632 -8 -15 -5 -18 18 -18 23 0
123 95 611 583 321 320 592 594 603 610 11 15 19 37 17 50 -4 18 -106 -80
-622 -593z"/>
<path d="M4596 550 c-284 -283 -522 -523 -527 -533 -8 -14 -5 -17 18 -17 23 0
108 81 511 483 266 265 492 494 503 510 11 15 19 37 17 50 -4 18 -89 -62 -522
-493z"/>
<path d="M4696 450 c-229 -228 -422 -423 -427 -432 -8 -15 -5 -18 18 -18 22 0
93 66 411 383 211 210 392 394 403 410 11 15 19 37 17 50 -4 18 -72 -45 -422
-393z"/>
<path d="M4796 350 c-174 -173 -322 -323 -327 -332 -8 -15 -5 -18 17 -18 23 0
80 52 312 282 156 156 293 295 303 311 11 15 19 37 17 50 -4 18 -54 -28 -322
-293z"/>
<path d="M4896 250 c-119 -118 -222 -223 -227 -232 -8 -15 -5 -18 17 -18 21 0
65 37 211 183 205 202 226 227 221 260 -3 19 -37 -11 -222 -193z"/>
<path d="M4996 150 c-136 -133 -149 -150 -111 -150 18 0 49 23 111 82 102 98
127 130 122 161 -3 19 -19 7 -122 -93z"/>
</g>
</svg>
